Images/vcd/dma.vcd
$date
   Mon Jun 29 18:40:01 2026
$end

$version
  2024.2.0
$end

$timescale
  1ps
$end

$scope module artifact_dma_tb $end
$var reg 1 ! clk $end
$var reg 1 " rst_n $end
$var reg 1 # start $end
$var reg 32 $ source_address [31:0] $end
$var reg 32 % destination_address [31:0] $end
$var reg 24 & length_bytes [23:0] $end
$var reg 1 ' start_accepted $end
$var reg 1 ( start_rejected $end
$var reg 1 ) busy $end
$var reg 1 * done $end
$var reg 1 + error $end
$var reg 4 , error_code [3:0] $end
$var reg 1 - source_req_valid $end
$var reg 1 . source_req_ready $end
$var reg 1 / source_req_write $end
$var reg 32 0 source_req_addr [31:0] $end
$var reg 32 1 source_req_wdata [31:0] $end
$var reg 4 2 source_req_wstrb [3:0] $end
$var reg 1 3 source_req_last $end
$var reg 1 4 source_rsp_valid $end
$var reg 1 5 source_rsp_ready $end
$var reg 32 6 source_rsp_rdata [31:0] $end
$var reg 1 7 source_rsp_error $end
$var reg 1 8 destination_req_valid $end
$var reg 1 9 destination_req_ready $end
$var reg 1 : destination_req_write $end
$var reg 32 ; destination_req_addr [31:0] $end
$var reg 32 < destination_req_wdata [31:0] $end
$var reg 4 = destination_req_wstrb [3:0] $end
$var reg 1 > destination_req_last $end
$var reg 1 ? destination_rsp_valid $end
$var reg 1 @ destination_rsp_ready $end
$var reg 32 A destination_rsp_rdata [31:0] $end
$var reg 1 B destination_rsp_error $end
$var reg 1 C active_cycle $end
$var reg 1 D stalled_cycle $end
$var reg 24 E bytes_read_event [23:0] $end
$var reg 24 F bytes_written_event [23:0] $end
$var reg 32 G definition_checksum [31:0] $end
$var reg 8 H phase [7:0] $end
$var integer 32 I trace_fd [31:0] $end
$var integer 32 J cycle_count [31:0] $end
$var integer 32 K src_req_count [31:0] $end
$var integer 32 L dst_req_count [31:0] $end
$var integer 32 M src_last_count [31:0] $end
$var integer 32 N dst_last_count [31:0] $end
$var integer 32 O stall_count [31:0] $end
$var integer 32 P bytes_read_total [31:0] $end
$var integer 32 Q bytes_written_total [31:0] $end
$var reg 32 R last_source_word [31:0] $end
$var reg 4 S last_dst_strobe [3:0] $end
$var reg 32 T last_dst_data [31:0] $end
$var reg 1 U source_ready_enable $end
$var reg 1 V destination_ready_enable $end
$var integer 32 W source_ready_modulus [31:0] $end
$var integer 32 X source_ready_block_residue [31:0] $end
$var integer 32 Y destination_ready_modulus [31:0] $end
$var integer 32 Z destination_ready_block_residue [31:0] $end
$var reg 1 [ source_fail_next $end
$var reg 1 \ destination_fail_next $end
$scope module dut $end
$var wire 1 ] clk $end
$var wire 1 ^ rst_n $end
$var wire 1 _ start $end
$var wire 32 ` source_address [31:0] $end
$var wire 32 a destination_address [31:0] $end
$var wire 24 b length_bytes [23:0] $end
$var reg 1 ' start_accepted $end
$var reg 1 ( start_rejected $end
$var reg 1 ) busy $end
$var reg 1 * done $end
$var reg 1 + error $end
$var reg 4 , error_code [3:0] $end
$var reg 1 - source_req_valid $end
$var wire 1 c source_req_ready $end
$var reg 1 / source_req_write $end
$var reg 32 0 source_req_addr [31:0] $end
$var reg 32 1 source_req_wdata [31:0] $end
$var reg 4 2 source_req_wstrb [3:0] $end
$var reg 1 3 source_req_last $end
$var wire 1 d source_rsp_valid $end
$var reg 1 5 source_rsp_ready $end
$var wire 32 e source_rsp_rdata [31:0] $end
$var wire 1 f source_rsp_error $end
$var reg 1 8 destination_req_valid $end
$var wire 1 g destination_req_ready $end
$var reg 1 : destination_req_write $end
$var reg 32 ; destination_req_addr [31:0] $end
$var reg 32 < destination_req_wdata [31:0] $end
$var reg 4 = destination_req_wstrb [3:0] $end
$var reg 1 > destination_req_last $end
$var wire 1 h destination_rsp_valid $end
$var reg 1 @ destination_rsp_ready $end
$var wire 32 i destination_rsp_rdata [31:0] $end
$var wire 1 j destination_rsp_error $end
$var reg 1 C active_cycle $end
$var reg 1 D stalled_cycle $end
$var reg 24 E bytes_read_event [23:0] $end
$var reg 24 F bytes_written_event [23:0] $end
$var reg 32 G definition_checksum [31:0] $end
$var parameter 0 k DATA_WIDTH [31:0] $end
$var parameter 0 l MAX_BURST_BEATS [31:0] $end
$scope module source_bus $end
$var wire 1 ] clk $end
$var wire 1 ^ rst_n $end
$var reg 1 m req_valid $end
$var reg 1 n req_ready $end
$var reg 1 o req_write $end
$var reg 32 p req_addr [31:0] $end
$var reg 32 q req_wdata [31:0] $end
$var reg 4 r req_wstrb [3:0] $end
$var reg 1 s req_last $end
$var reg 1 t rsp_valid $end
$var reg 1 u rsp_ready $end
$var reg 32 v rsp_rdata [31:0] $end
$var reg 1 w rsp_error $end
$var parameter 0 x ADDR_WIDTH [31:0] $end
$var parameter 0 y DATA_WIDTH [31:0] $end
$var parameter 0 z STRB_WIDTH [31:0] $end
$scope module initiator $end
$var reg 1 n req_ready $end
$var reg 1 t rsp_valid $end
$var reg 32 v rsp_rdata [31:0] $end
$var reg 1 w rsp_error $end
$var reg 1 m req_valid $end
$var reg 1 o req_write $end
$var reg 32 p req_addr [31:0] $end
$var reg 32 q req_wdata [31:0] $end
$var reg 4 r req_wstrb [3:0] $end
$var reg 1 s req_last $end
$var reg 1 u rsp_ready $end
$upscope $end
$scope module target $end
$var reg 1 m req_valid $end
$var reg 1 o req_write $end
$var reg 32 p req_addr [31:0] $end
$var reg 32 q req_wdata [31:0] $end
$var reg 4 r req_wstrb [3:0] $end
$var reg 1 s req_last $end
$var reg 1 u rsp_ready $end
$var reg 1 n req_ready $end
$var reg 1 t rsp_valid $end
$var reg 32 v rsp_rdata [31:0] $end
$var reg 1 w rsp_error $end
$upscope $end
$scope module monitor $end
$var wire 1 ] clk $end
$var wire 1 ^ rst_n $end
$var reg 1 m req_valid $end
$var reg 1 n req_ready $end
$var reg 1 o req_write $end
$var reg 32 p req_addr [31:0] $end
$var reg 32 q req_wdata [31:0] $end
$var reg 4 r req_wstrb [3:0] $end
$var reg 1 s req_last $end
$var reg 1 t rsp_valid $end
$var reg 1 u rsp_ready $end
$var reg 32 v rsp_rdata [31:0] $end
$var reg 1 w rsp_error $end
$upscope $end
$upscope $end
$scope module destination_bus $end
$var wire 1 ] clk $end
$var wire 1 ^ rst_n $end
$var reg 1 { req_valid $end
$var reg 1 | req_ready $end
$var reg 1 } req_write $end
$var reg 32 ~ req_addr [31:0] $end
$var reg 32 !! req_wdata [31:0] $end
$var reg 4 "! req_wstrb [3:0] $end
$var reg 1 #! req_last $end
$var reg 1 $! rsp_valid $end
$var reg 1 %! rsp_ready $end
$var reg 32 &! rsp_rdata [31:0] $end
$var reg 1 '! rsp_error $end
$var parameter 0 (! ADDR_WIDTH [31:0] $end
$var parameter 0 )! DATA_WIDTH [31:0] $end
$var parameter 0 *! STRB_WIDTH [31:0] $end
$scope module initiator $end
$var reg 1 | req_ready $end
$var reg 1 $! rsp_valid $end
$var reg 32 &! rsp_rdata [31:0] $end
$var reg 1 '! rsp_error $end
$var reg 1 { req_valid $end
$var reg 1 } req_write $end
$var reg 32 ~ req_addr [31:0] $end
$var reg 32 !! req_wdata [31:0] $end
$var reg 4 "! req_wstrb [3:0] $end
$var reg 1 #! req_last $end
$var reg 1 %! rsp_ready $end
$upscope $end
$scope module target $end
$var reg 1 { req_valid $end
$var reg 1 } req_write $end
$var reg 32 ~ req_addr [31:0] $end
$var reg 32 !! req_wdata [31:0] $end
$var reg 4 "! req_wstrb [3:0] $end
$var reg 1 #! req_last $end
$var reg 1 %! rsp_ready $end
$var reg 1 | req_ready $end
$var reg 1 $! rsp_valid $end
$var reg 32 &! rsp_rdata [31:0] $end
$var reg 1 '! rsp_error $end
$upscope $end
$scope module monitor $end
$var wire 1 ] clk $end
$var wire 1 ^ rst_n $end
$var reg 1 { req_valid $end
$var reg 1 | req_ready $end
$var reg 1 } req_write $end
$var reg 32 ~ req_addr [31:0] $end
$var reg 32 !! req_wdata [31:0] $end
$var reg 4 "! req_wstrb [3:0] $end
$var reg 1 #! req_last $end
$var reg 1 $! rsp_valid $end
$var reg 1 %! rsp_ready $end
$var reg 32 &! rsp_rdata [31:0] $end
$var reg 1 '! rsp_error $end
$upscope $end
$upscope $end
$scope module u_protocol_compile $end
$var wire 1 ] clk $end
$var wire 1 ^ rst_n $end
$var reg 32 G definition_checksum [31:0] $end
$scope module axil_bus $end
$var wire 1 ] clk $end
$var wire 1 ^ rst_n $end
$var reg 1 +! awvalid $end
$var reg 1 ,! awready $end
$var reg 12 -! awaddr [11:0] $end
$var reg 1 .! wvalid $end
$var reg 1 /! wready $end
$var reg 32 0! wdata [31:0] $end
$var reg 4 1! wstrb [3:0] $end
$var reg 1 2! bvalid $end
$var reg 1 3! bready $end
$var reg 2 4! bresp [1:0] $end
$var reg 1 5! arvalid $end
$var reg 1 6! arready $end
$var reg 12 7! araddr [11:0] $end
$var reg 1 8! rvalid $end
$var reg 1 9! rready $end
$var reg 32 :! rdata [31:0] $end
$var reg 2 ;! rresp [1:0] $end
$var parameter 0 <! ADDR_WIDTH [31:0] $end
$var parameter 0 =! DATA_WIDTH [31:0] $end
$var parameter 0 >! STRB_WIDTH [31:0] $end
$scope module manager $end
$var reg 1 ,! awready $end
$var reg 1 /! wready $end
$var reg 1 2! bvalid $end
$var reg 2 4! bresp [1:0] $end
$var reg 1 6! arready $end
$var reg 1 8! rvalid $end
$var reg 32 :! rdata [31:0] $end
$var reg 2 ;! rresp [1:0] $end
$var reg 1 +! awvalid $end
$var reg 12 -! awaddr [11:0] $end
$var reg 1 .! wvalid $end
$var reg 32 0! wdata [31:0] $end
$var reg 4 1! wstrb [3:0] $end
$var reg 1 3! bready $end
$var reg 1 5! arvalid $end
$var reg 12 7! araddr [11:0] $end
$var reg 1 9! rready $end
$upscope $end
$scope module subordinate $end
$var reg 1 +! awvalid $end
$var reg 12 -! awaddr [11:0] $end
$var reg 1 .! wvalid $end
$var reg 32 0! wdata [31:0] $end
$var reg 4 1! wstrb [3:0] $end
$var reg 1 3! bready $end
$var reg 1 5! arvalid $end
$var reg 12 7! araddr [11:0] $end
$var reg 1 9! rready $end
$var reg 1 ,! awready $end
$var reg 1 /! wready $end
$var reg 1 2! bvalid $end
$var reg 2 4! bresp [1:0] $end
$var reg 1 6! arready $end
$var reg 1 8! rvalid $end
$var reg 32 :! rdata [31:0] $end
$var reg 2 ;! rresp [1:0] $end
$upscope $end
$scope module monitor $end
$var wire 1 ] clk $end
$var wire 1 ^ rst_n $end
$var reg 1 +! awvalid $end
$var reg 1 ,! awready $end
$var reg 12 -! awaddr [11:0] $end
$var reg 1 .! wvalid $end
$var reg 1 /! wready $end
$var reg 32 0! wdata [31:0] $end
$var reg 4 1! wstrb [3:0] $end
$var reg 1 2! bvalid $end
$var reg 1 3! bready $end
$var reg 2 4! bresp [1:0] $end
$var reg 1 5! arvalid $end
$var reg 1 6! arready $end
$var reg 12 7! araddr [11:0] $end
$var reg 1 8! rvalid $end
$var reg 1 9! rready $end
$var reg 32 :! rdata [31:0] $end
$var reg 2 ;! rresp [1:0] $end
$upscope $end
$upscope $end
$scope module memory_bus $end
$var wire 1 ] clk $end
$var wire 1 ^ rst_n $end
$var reg 1 ?! req_valid $end
$var reg 1 @! req_ready $end
$var reg 1 A! req_write $end
$var reg 32 B! req_addr [31:0] $end
$var reg 32 C! req_wdata [31:0] $end
$var reg 4 D! req_wstrb [3:0] $end
$var reg 1 E! req_last $end
$var reg 1 F! rsp_valid $end
$var reg 1 G! rsp_ready $end
$var reg 32 H! rsp_rdata [31:0] $end
$var reg 1 I! rsp_error $end
$var parameter 0 J! ADDR_WIDTH [31:0] $end
$var parameter 0 K! DATA_WIDTH [31:0] $end
$var parameter 0 L! STRB_WIDTH [31:0] $end
$scope module initiator $end
$var reg 1 @! req_ready $end
$var reg 1 F! rsp_valid $end
$var reg 32 H! rsp_rdata [31:0] $end
$var reg 1 I! rsp_error $end
$var reg 1 ?! req_valid $end
$var reg 1 A! req_write $end
$var reg 32 B! req_addr [31:0] $end
$var reg 32 C! req_wdata [31:0] $end
$var reg 4 D! req_wstrb [3:0] $end
$var reg 1 E! req_last $end
$var reg 1 G! rsp_ready $end
$upscope $end
$scope module target $end
$var reg 1 ?! req_valid $end
$var reg 1 A! req_write $end
$var reg 32 B! req_addr [31:0] $end
$var reg 32 C! req_wdata [31:0] $end
$var reg 4 D! req_wstrb [3:0] $end
$var reg 1 E! req_last $end
$var reg 1 G! rsp_ready $end
$var reg 1 @! req_ready $end
$var reg 1 F! rsp_valid $end
$var reg 32 H! rsp_rdata [31:0] $end
$var reg 1 I! rsp_error $end
$upscope $end
$scope module monitor $end
$var wire 1 ] clk $end
$var wire 1 ^ rst_n $end
$var reg 1 ?! req_valid $end
$var reg 1 @! req_ready $end
$var reg 1 A! req_write $end
$var reg 32 B! req_addr [31:0] $end
$var reg 32 C! req_wdata [31:0] $end
$var reg 4 D! req_wstrb [3:0] $end
$var reg 1 E! req_last $end
$var reg 1 F! rsp_valid $end
$var reg 1 G! rsp_ready $end
$var reg 32 H! rsp_rdata [31:0] $end
$var reg 1 I! rsp_error $end
$upscope $end
$upscope $end
$scope module stream_bus $end
$var wire 1 ] clk $end
$var wire 1 ^ rst_n $end
$var reg 1 M! valid $end
$var reg 1 N! ready $end
$var reg 32 O! data [31:0] $end
$var reg 1 P! last $end
$var reg 1 Q! user [0:0] $end
$var parameter 0 R! DATA_WIDTH [31:0] $end
$var parameter 0 S! USER_WIDTH [31:0] $end
$scope module source $end
$var reg 1 N! ready $end
$var reg 1 M! valid $end
$var reg 32 O! data [31:0] $end
$var reg 1 P! last $end
$var reg 1 Q! user [0:0] $end
$upscope $end
$scope module sink $end
$var reg 1 M! valid $end
$var reg 32 O! data [31:0] $end
$var reg 1 P! last $end
$var reg 1 Q! user [0:0] $end
$var reg 1 N! ready $end
$upscope $end
$scope module monitor $end
$var wire 1 ] clk $end
$var wire 1 ^ rst_n $end
$var reg 1 M! valid $end
$var reg 1 N! ready $end
$var reg 32 O! data [31:0] $end
$var reg 1 P! last $end
$var reg 1 Q! user [0:0] $end
$upscope $end
$upscope $end
$scope module interrupt_bus $end
$var wire 1 ] clk $end
$var wire 1 ^ rst_n $end
$var reg 5 T! sources [4:0] $end
$var reg 5 U! pending [4:0] $end
$var reg 5 V! enable [4:0] $end
$var reg 5 W! clear [4:0] $end
$var reg 1 X! irq $end
$var parameter 0 Y! SOURCE_COUNT [31:0] $end
$scope module source $end
$var reg 5 T! sources [4:0] $end
$upscope $end
$scope module controller $end
$var reg 5 T! sources [4:0] $end
$var reg 5 W! clear [4:0] $end
$var reg 5 U! pending [4:0] $end
$var reg 5 V! enable [4:0] $end
$var reg 1 X! irq $end
$upscope $end
$scope module monitor $end
$var wire 1 ] clk $end
$var wire 1 ^ rst_n $end
$var reg 5 T! sources [4:0] $end
$var reg 5 U! pending [4:0] $end
$var reg 5 V! enable [4:0] $end
$var reg 5 W! clear [4:0] $end
$var reg 1 X! irq $end
$upscope $end
$upscope $end
$scope module command_bus $end
$var wire 1 ] clk $end
$var wire 1 ^ rst_n $end
$var reg 1 Z! cmd_valid $end
$var reg 1 [! cmd_ready $end
$var reg 167 \! cmd $end
$var reg 1 ]! cmd_full $end
$var reg 1 ^! rsp_valid $end
$var reg 1 _! rsp_ready $end
$var reg 88 `! rsp $end
$var reg 1 a! rsp_empty $end
$scope module producer $end
$var reg 1 [! cmd_ready $end
$var reg 1 ]! cmd_full $end
$var reg 1 ^! rsp_valid $end
$var reg 88 `! rsp $end
$var reg 1 a! rsp_empty $end
$var reg 1 Z! cmd_valid $end
$var reg 167 \! cmd $end
$var reg 1 _! rsp_ready $end
$upscope $end
$scope module consumer $end
$var reg 1 Z! cmd_valid $end
$var reg 167 \! cmd $end
$var reg 1 _! rsp_ready $end
$var reg 1 [! cmd_ready $end
$var reg 1 ]! cmd_full $end
$var reg 1 ^! rsp_valid $end
$var reg 88 `! rsp $end
$var reg 1 a! rsp_empty $end
$upscope $end
$scope module monitor $end
$var wire 1 ] clk $end
$var wire 1 ^ rst_n $end
$var reg 1 Z! cmd_valid $end
$var reg 1 [! cmd_ready $end
$var reg 167 \! cmd $end
$var reg 1 ]! cmd_full $end
$var reg 1 ^! rsp_valid $end
$var reg 1 _! rsp_ready $end
$var reg 88 `! rsp $end
$var reg 1 a! rsp_empty $end
$upscope $end
$upscope $end
$upscope $end
$scope module u_dma $end
$var wire 1 ] clk $end
$var wire 1 ^ rst_n $end
$var wire 1 _ start $end
$var wire 32 ` source_address $end
$var wire 32 a destination_address $end
$var wire 24 b length_bytes $end
$var reg 1 ' start_accepted $end
$var reg 1 ( start_rejected $end
$var reg 1 ) busy $end
$var reg 1 * done $end
$var reg 1 + error $end
$var reg 4 , error_code $end
$var reg 1 C active_cycle $end
$var reg 1 D stalled_cycle $end
$var reg 24 E bytes_read_event $end
$var reg 24 F bytes_written_event $end
$var reg 3 b! state $end
$var reg 32 c! current_source_address $end
$var reg 32 d! current_destination_address $end
$var reg 24 e! bytes_remaining $end
$var reg 32 f! read_data [31:0] $end
$var reg 2 g! burst_index [1:0] $end
$var reg 24 h! current_beat_bytes $end
$var reg 4 i! current_write_strobe $end
$var reg 1 j! current_burst_last $end
$var reg 1 k! source_response_fire $end
$var reg 1 l! destination_response_fire $end
$var reg 1 m! source_terminal_error $end
$var reg 1 n! destination_terminal $end
$var reg 1 o! source_range_legal $end
$var reg 1 p! destination_range_legal $end
$var reg 1 q! start_ranges_overlap $end
$var reg 1 r! start_address_error $end
$var parameter 0 s! DATA_WIDTH [31:0] $end
$var parameter 0 t! MAX_BURST_BEATS [31:0] $end
$var parameter 0 u! DMA_DATA_BYTES [31:0] $end
$var parameter 0 v! DMA_STRB_WIDTH [31:0] $end
$var parameter 0 w! BURST_INDEX_WIDTH [31:0] $end
$scope module source_port $end
$var wire 1 ] clk $end
$var wire 1 ^ rst_n $end
$var reg 1 m req_valid $end
$var reg 1 n req_ready $end
$var reg 1 o req_write $end
$var reg 32 p req_addr [31:0] $end
$var reg 32 q req_wdata [31:0] $end
$var reg 4 r req_wstrb [3:0] $end
$var reg 1 s req_last $end
$var reg 1 t rsp_valid $end
$var reg 1 u rsp_ready $end
$var reg 32 v rsp_rdata [31:0] $end
$var reg 1 w rsp_error $end
$var parameter 0 x ADDR_WIDTH [31:0] $end
$var parameter 0 y DATA_WIDTH [31:0] $end
$var parameter 0 z STRB_WIDTH [31:0] $end
$scope module initiator $end
$var reg 1 n req_ready $end
$var reg 1 t rsp_valid $end
$var reg 32 v rsp_rdata [31:0] $end
$var reg 1 w rsp_error $end
$var reg 1 m req_valid $end
$var reg 1 o req_write $end
$var reg 32 p req_addr [31:0] $end
$var reg 32 q req_wdata [31:0] $end
$var reg 4 r req_wstrb [3:0] $end
$var reg 1 s req_last $end
$var reg 1 u rsp_ready $end
$upscope $end
$scope module target $end
$var reg 1 m req_valid $end
$var reg 1 o req_write $end
$var reg 32 p req_addr [31:0] $end
$var reg 32 q req_wdata [31:0] $end
$var reg 4 r req_wstrb [3:0] $end
$var reg 1 s req_last $end
$var reg 1 u rsp_ready $end
$var reg 1 n req_ready $end
$var reg 1 t rsp_valid $end
$var reg 32 v rsp_rdata [31:0] $end
$var reg 1 w rsp_error $end
$upscope $end
$scope module monitor $end
$var wire 1 ] clk $end
$var wire 1 ^ rst_n $end
$var reg 1 m req_valid $end
$var reg 1 n req_ready $end
$var reg 1 o req_write $end
$var reg 32 p req_addr [31:0] $end
$var reg 32 q req_wdata [31:0] $end
$var reg 4 r req_wstrb [3:0] $end
$var reg 1 s req_last $end
$var reg 1 t rsp_valid $end
$var reg 1 u rsp_ready $end
$var reg 32 v rsp_rdata [31:0] $end
$var reg 1 w rsp_error $end
$upscope $end
$upscope $end
$scope module destination_port $end
$var wire 1 ] clk $end
$var wire 1 ^ rst_n $end
$var reg 1 { req_valid $end
$var reg 1 | req_ready $end
$var reg 1 } req_write $end
$var reg 32 ~ req_addr [31:0] $end
$var reg 32 !! req_wdata [31:0] $end
$var reg 4 "! req_wstrb [3:0] $end
$var reg 1 #! req_last $end
$var reg 1 $! rsp_valid $end
$var reg 1 %! rsp_ready $end
$var reg 32 &! rsp_rdata [31:0] $end
$var reg 1 '! rsp_error $end
$var parameter 0 (! ADDR_WIDTH [31:0] $end
$var parameter 0 )! DATA_WIDTH [31:0] $end
$var parameter 0 *! STRB_WIDTH [31:0] $end
$scope module initiator $end
$var reg 1 | req_ready $end
$var reg 1 $! rsp_valid $end
$var reg 32 &! rsp_rdata [31:0] $end
$var reg 1 '! rsp_error $end
$var reg 1 { req_valid $end
$var reg 1 } req_write $end
$var reg 32 ~ req_addr [31:0] $end
$var reg 32 !! req_wdata [31:0] $end
$var reg 4 "! req_wstrb [3:0] $end
$var reg 1 #! req_last $end
$var reg 1 %! rsp_ready $end
$upscope $end
$scope module target $end
$var reg 1 { req_valid $end
$var reg 1 } req_write $end
$var reg 32 ~ req_addr [31:0] $end
$var reg 32 !! req_wdata [31:0] $end
$var reg 4 "! req_wstrb [3:0] $end
$var reg 1 #! req_last $end
$var reg 1 %! rsp_ready $end
$var reg 1 | req_ready $end
$var reg 1 $! rsp_valid $end
$var reg 32 &! rsp_rdata [31:0] $end
$var reg 1 '! rsp_error $end
$upscope $end
$scope module monitor $end
$var wire 1 ] clk $end
$var wire 1 ^ rst_n $end
$var reg 1 { req_valid $end
$var reg 1 | req_ready $end
$var reg 1 } req_write $end
$var reg 32 ~ req_addr [31:0] $end
$var reg 32 !! req_wdata [31:0] $end
$var reg 4 "! req_wstrb [3:0] $end
$var reg 1 #! req_last $end
$var reg 1 $! rsp_valid $end
$var reg 1 %! rsp_ready $end
$var reg 32 &! rsp_rdata [31:0] $end
$var reg 1 '! rsp_error $end
$upscope $end
$upscope $end
$upscope $end
$upscope $end
$scope begin Block324_45 $end
$var integer 32 x! before_src [31:0] $end
$var integer 32 y! before_dst [31:0] $end
$upscope $end
$upscope $end
$enddefinitions $end

#0
$dumpvars
0!
bx !!
0"
b0 "!
0#
0#!
b0 $
0$!
b0 %
0%!
b0 &
b0 &!
x'
0'!
x(
b100000 (!
x)
b100000 )!
x*
b100 *!
x+
0+!
bx ,
0,!
0-
b0 -!
1.
0.!
0/
0/!
bx 0
b0 0!
b0 1
b0 1!
b0 2
02!
03
03!
04
b0 4!
05
05!
b0 6
06!
07
b0 7!
08
08!
19
09!
1:
b0 :!
bx ;
b0 ;!
bx <
b1100 <!
b0 =
b100000 =!
0>
b100 >!
0?
0?!
0@
0@!
b0 A
0A!
0B
b0 B!
xC
b0 C!
xD
b0 D!
bx E
1E!
bx F
0F!
b1010011010011100100001101011111 G
0G!
b1 H
b0 H!
b11111111111111111011000111100000 I
0I!
b0 J
b100000 J!
b0 K
b100000 K!
b0 L
b100 L!
b0 M
0M!
b0 N
0N!
b0 O
b0 O!
b0 P
0P!
b0 Q
0Q!
b0 R
b100000 R!
b0 S
b1 S!
b0 T
b0 T!
1U
b0 U!
1V
b0 V!
b0 W
b0 W!
b0 X
0X!
b0 Y
b101 Y!
b0 Z
0Z!
0[
0[!
0\
b0 \!
0]
0]!
0^
0^!
0_
0_!
b0 `
b0 `!
b0 a
1a!
b0 b
bx b!
1c
bx c!
0d
bx d!
b0 e
bx e!
0f
bx f!
1g
bx g!
0h
bx h!
b0 i
b0 i!
0j
xj!
b100000 k
0k!
b100 l
0l!
0m
0m!
1n
0n!
0o
1o!
bx p
1p!
b0 q
0q!
b0 r
0r!
0s
b100000 s!
0t
b100 t!
0u
b100 u!
b0 v
b100 v!
0w
b10 w!
b100000 x
bx x!
b100000 y
bx y!
b100 z
0{
1|
1}
bx ~
$end

#5000
1!
0'
0(
0)
0*
0+
b0 ,
0C
0D
b0 E
b0 F
1]
b0 b!

#10000
0!
0]

#15000
1!
1]

#20000
0!
0]

#25000
1!
1]

#26000
1"
1^

#30000
0!
0]

#35000
1!
b1 J
1]

#36000
1#
b10000000000000000000000100000000 $
b10000000000000000001000000000 %
b100 &
b10000 H
1_
b10000000000000000000000100000000 `
b10000000000000000001000000000 a
b100 b

#40000
0!
0]

#45000
1!
b1111 "!
1'
1)
1-
b10000000000000000000000100000000 0
13
b10000000000000000001000000000 ;
b1111 =
1C
b10 J
1]
b1 b!
b10000000000000000000000100000000 c!
b10000000000000000001000000000 d!
b100 e!
b0 g!
b100 h!
b1111 i!
1j!
1m
b10000000000000000000000100000000 p
1s
b10000000000000000001000000000 ~

#46000
0#
0_

#50000
0!
0]

#55000
1!
0'
0-
03
14
15
b11011011000000001000000100000000 6
0D
b11 J
b1 K
b1 M
b11011011000000001000000100000000 R
1]
b10 b!
1d
b11011011000000001000000100000000 e
1k!
0m
0s
1t
1u
b11011011000000001000000100000000 v

#60000
0!
0]

#65000
1!
b11011011000000001000000100000000 !!
1#!
04
05
18
b11011011000000001000000100000000 <
1>
b100 E
b100 J
1]
b11 b!
0d
b11011011000000001000000100000000 f!
0k!
0t
0u
1{

#70000
0!
0]

#75000
1!
0#!
1$!
1%!
08
0>
1?
1@
0D
b0 E
b101 J
b1 L
b1 N
b100 P
b1111 S
b11011011000000001000000100000000 T
1]
b100 b!
1h
1l!
1n!
0{

#80000
0!
0]

#85000
1!
0$!
0%!
0)
1*
0?
0@
0C
b100 F
b110 J
1]
b0 b!
0h
0l!
0n!

#86000
0"
b0 $
b0 %
b0 &
b0 6
b100000 H
b0 J
b0 K
b0 L
b0 M
b0 N
b0 P
b0 R
b0 S
b0 T
0^
b0 `
b0 a
b0 b
b0 e
b0 v

#90000
0!
0]

#95000
1!
0*
b0 F
1]

#100000
0!
0]

#105000
1!
1]

#110000
0!
0]

#115000
1!
1]

#116000
1"
1^

#120000
0!
0]

#125000
1!
b1 J
1]

#126000
1#
b10000000000000000000010000000000 $
b10000000000000000100000000000 %
b10011 &
1_
b10000000000000000000010000000000 `
b10000000000000000100000000000 a
b10011 b

#130000
0!
0]

#135000
1!
1'
1)
1-
b10000000000000000000010000000000 0
b10000000000000000100000000000 ;
1C
b10 J
1]
b1 b!
b10000000000000000000010000000000 c!
b10000000000000000100000000000 d!
b10011 e!
0j!
1m
b10000000000000000000010000000000 p
b10000000000000000100000000000 ~

#136000
0#
0_

#140000
0!
0]

#145000
1!
0'
0-
14
15
b11011110000000001000010000000000 6
0D
b11 J
b1 K
b11011110000000001000010000000000 R
1]
b10 b!
1d
b11011110000000001000010000000000 e
1k!
0m
1t
1u
b11011110000000001000010000000000 v

#150000
0!
0]

#155000
1!
b11011110000000001000010000000000 !!
04
05
18
b11011110000000001000010000000000 <
b100 E
b100 J
1]
b11 b!
0d
b11011110000000001000010000000000 f!
0k!
0t
0u
1{

#160000
0!
0]

#165000
1!
1$!
1%!
08
1?
1@
0D
b0 E
b101 J
b1 L
b100 P
b1111 S
b11011110000000001000010000000000 T
1]
b100 b!
1h
1l!
0{

#170000
0!
0]

#175000
1!
0$!
0%!
1-
b10000000000000000000010000000100 0
b10000000000000000100000000100 ;
0?
0@
b100 F
b110 J
1]
b1 b!
b10000000000000000000010000000100 c!
b10000000000000000100000000100 d!
b1111 e!
b1 g!
0h
0l!
1m
b10000000000000000000010000000100 p
b10000000000000000100000000100 ~

#180000
0!
0]

#185000
1!
0-
14
15
b11011110000001001000010000000100 6
0D
b0 F
b111 J
b10 K
b100 Q
b11011110000001001000010000000100 R
1]
b10 b!
1d
b11011110000001001000010000000100 e
1k!
0m
1t
1u
b11011110000001001000010000000100 v

#190000
0!
0]

#195000
1!
b11011110000001001000010000000100 !!
04
05
18
b11011110000001001000010000000100 <
b100 E
b1000 J
1]
b11 b!
0d
b11011110000001001000010000000100 f!
0k!
0t
0u
1{

#200000
0!
0]

#205000
1!
1$!
1%!
08
1?
1@
0D
b0 E
b1001 J
b10 L
b1000 P
b11011110000001001000010000000100 T
1]
b100 b!
1h
1l!
0{

#210000
0!
0]

#215000
1!
0$!
0%!
1-
b10000000000000000000010000001000 0
b10000000000000000100000001000 ;
0?
0@
b100 F
b1010 J
1]
b1 b!
b10000000000000000000010000001000 c!
b10000000000000000100000001000 d!
b1011 e!
b10 g!
0h
0l!
1m
b10000000000000000000010000001000 p
b10000000000000000100000001000 ~

#220000
0!
0]

#225000
1!
0-
14
15
b11011110000010001000010000001000 6
0D
b0 F
b1011 J
b11 K
b1000 Q
b11011110000010001000010000001000 R
1]
b10 b!
1d
b11011110000010001000010000001000 e
1k!
0m
1t
1u
b11011110000010001000010000001000 v

#230000
0!
0]

#235000
1!
b11011110000010001000010000001000 !!
04
05
18
b11011110000010001000010000001000 <
b100 E
b1100 J
1]
b11 b!
0d
b11011110000010001000010000001000 f!
0k!
0t
0u
1{

#240000
0!
0]

#245000
1!
1$!
1%!
08
1?
1@
0D
b0 E
b1101 J
b11 L
b1100 P
b11011110000010001000010000001000 T
1]
b100 b!
1h
1l!
0{

#250000
0!
0]

#255000
1!
0$!
0%!
1-
b10000000000000000000010000001100 0
13
b10000000000000000100000001100 ;
0?
0@
b100 F
b1110 J
1]
b1 b!
b10000000000000000000010000001100 c!
b10000000000000000100000001100 d!
b111 e!
b11 g!
0h
1j!
0l!
1m
b10000000000000000000010000001100 p
1s
b10000000000000000100000001100 ~

#260000
0!
0]

#265000
1!
0-
03
14
15
b11011110000011001000010000001100 6
0D
b0 F
b1111 J
b100 K
b1 M
b1100 Q
b11011110000011001000010000001100 R
1]
b10 b!
1d
b11011110000011001000010000001100 e
1k!
0m
0s
1t
1u
b11011110000011001000010000001100 v

#270000
0!
0]

#275000
1!
b11011110000011001000010000001100 !!
1#!
04
05
18
b11011110000011001000010000001100 <
1>
b100 E
b10000 J
1]
b11 b!
0d
b11011110000011001000010000001100 f!
0k!
0t
0u
1{

#280000
0!
0]

