Images/vcd/gemm.vcd
$date
   Mon Jun 29 18:40:44 2026
$end

$version
  2024.2.0
$end

$timescale
  1ps
$end

$scope module artifact_gemm_tb $end
$var reg 1 ! clk $end
$var reg 1 " rst_n $end
$var reg 1 # command_valid $end
$var reg 1 $ command_ready $end
$var reg 4 % command_opcode [3:0] $end
$var reg 32 & command_src0_addr [31:0] $end
$var reg 32 ' command_src1_addr [31:0] $end
$var reg 32 ( command_dst_addr [31:0] $end
$var reg 8 ) command_m [7:0] $end
$var reg 8 * command_n [7:0] $end
$var reg 8 + command_k [7:0] $end
$var reg 8 , command_flags [7:0] $end
$var reg 16 - command_id [15:0] $end
$var reg 1 . response_valid $end
$var reg 1 / response_ready $end
$var reg 16 0 response_command_id [15:0] $end
$var reg 4 1 response_opcode [3:0] $end
$var reg 4 2 response_error [3:0] $end
$var reg 32 3 response_result [31:0] $end
$var reg 32 4 response_cycles [31:0] $end
$var reg 1 5 memory_req_valid $end
$var reg 1 6 memory_req_ready $end
$var reg 1 7 memory_req_write $end
$var reg 32 8 memory_req_addr [31:0] $end
$var reg 32 9 memory_req_wdata [31:0] $end
$var reg 4 : memory_req_wstrb [3:0] $end
$var reg 1 ; memory_req_last $end
$var reg 1 < memory_rsp_valid $end
$var reg 1 = memory_rsp_ready $end
$var reg 32 > memory_rsp_rdata [31:0] $end
$var reg 1 ? memory_rsp_error $end
$var reg 1 @ busy $end
$var reg 1 A done $end
$var reg 1 B error $end
$var reg 4 C error_code [3:0] $end
$var reg 1 D active_cycle $end
$var reg 1 E stalled_cycle $end
$var reg 16 F outputs_completed_event [15:0] $end
$var reg 32 G definition_checksum [31:0] $end
$var reg 8 H phase [7:0] $end
$var integer 32 I trace_fd [31:0] $end
$var integer 32 J cycle_count [31:0] $end
$var integer 32 K read_count [31:0] $end
$var integer 32 L write_count [31:0] $end
$var integer 32 M stall_count [31:0] $end
$var integer 32 N last_write_count [31:0] $end
$var reg 1 O ready_enable $end
$var integer 32 P ready_modulus [31:0] $end
$var integer 32 Q ready_block_residue [31:0] $end
$var reg 1 R fail_next_read $end
$var reg 1 S fail_next_write $end
$var reg 4 T last_write_strobe [3:0] $end
$var parameter 0 U SPM_WORDS [31:0] $end
$var parameter 32 V MATRIX_A_BASE [31:0] $end
$var parameter 32 W MATRIX_B_BASE [31:0] $end
$var parameter 32 X MATRIX_C_BASE [31:0] $end
$scope module dut $end
$var wire 1 Y clk $end
$var wire 1 Z rst_n $end
$var wire 1 [ command_valid $end
$var reg 1 $ command_ready $end
$var wire 4 \ command_opcode [3:0] $end
$var wire 32 ] command_src0_addr [31:0] $end
$var wire 32 ^ command_src1_addr [31:0] $end
$var wire 32 _ command_dst_addr [31:0] $end
$var wire 8 ` command_m [7:0] $end
$var wire 8 a command_n [7:0] $end
$var wire 8 b command_k [7:0] $end
$var wire 8 c command_flags [7:0] $end
$var wire 16 d command_id [15:0] $end
$var reg 1 . response_valid $end
$var wire 1 e response_ready $end
$var reg 16 0 response_command_id [15:0] $end
$var reg 4 1 response_opcode [3:0] $end
$var reg 4 2 response_error [3:0] $end
$var reg 32 3 response_result [31:0] $end
$var reg 32 4 response_cycles [31:0] $end
$var reg 1 5 memory_req_valid $end
$var wire 1 f memory_req_ready $end
$var reg 1 7 memory_req_write $end
$var reg 32 8 memory_req_addr [31:0] $end
$var reg 32 9 memory_req_wdata [31:0] $end
$var reg 4 : memory_req_wstrb [3:0] $end
$var reg 1 ; memory_req_last $end
$var wire 1 g memory_rsp_valid $end
$var reg 1 = memory_rsp_ready $end
$var wire 32 h memory_rsp_rdata [31:0] $end
$var wire 1 i memory_rsp_error $end
$var reg 1 @ busy $end
$var reg 1 A done $end
$var reg 1 B error $end
$var reg 4 C error_code [3:0] $end
$var reg 1 D active_cycle $end
$var reg 1 E stalled_cycle $end
$var reg 16 F outputs_completed_event [15:0] $end
$var reg 32 G definition_checksum [31:0] $end
$var reg 167 j command $end
$var reg 88 k response_payload $end
$var reg 167 l xilinx_isim_temp_25_ln56_blkAssignCaching $end
$var parameter 0 m DATA_WIDTH [31:0] $end
$var parameter 0 n ELEMENT_WIDTH [31:0] $end
$var parameter 0 o ACCUM_WIDTH [31:0] $end
$var parameter 0 p MAX_M [31:0] $end
$var parameter 0 q MAX_N [31:0] $end
$var parameter 0 r MAX_K [31:0] $end
$var parameter 0 s TILE_M [31:0] $end
$var parameter 0 t TILE_N [31:0] $end
$scope module memory_bus $end
$var wire 1 Y clk $end
$var wire 1 Z rst_n $end
$var reg 1 u req_valid $end
$var reg 1 v req_ready $end
$var reg 1 w req_write $end
$var reg 32 x req_addr [31:0] $end
$var reg 32 y req_wdata [31:0] $end
$var reg 4 z req_wstrb [3:0] $end
$var reg 1 { req_last $end
$var reg 1 | rsp_valid $end
$var reg 1 } rsp_ready $end
$var reg 32 ~ rsp_rdata [31:0] $end
$var reg 1 !! rsp_error $end
$var parameter 0 "! ADDR_WIDTH [31:0] $end
$var parameter 0 #! DATA_WIDTH [31:0] $end
$var parameter 0 $! STRB_WIDTH [31:0] $end
$scope module initiator $end
$var reg 1 v req_ready $end
$var reg 1 | rsp_valid $end
$var reg 32 ~ rsp_rdata [31:0] $end
$var reg 1 !! rsp_error $end
$var reg 1 u req_valid $end
$var reg 1 w req_write $end
$var reg 32 x req_addr [31:0] $end
$var reg 32 y req_wdata [31:0] $end
$var reg 4 z req_wstrb [3:0] $end
$var reg 1 { req_last $end
$var reg 1 } rsp_ready $end
$upscope $end
$scope module target $end
$var reg 1 u req_valid $end
$var reg 1 w req_write $end
$var reg 32 x req_addr [31:0] $end
$var reg 32 y req_wdata [31:0] $end
$var reg 4 z req_wstrb [3:0] $end
$var reg 1 { req_last $end
$var reg 1 } rsp_ready $end
$var reg 1 v req_ready $end
$var reg 1 | rsp_valid $end
$var reg 32 ~ rsp_rdata [31:0] $end
$var reg 1 !! rsp_error $end
$upscope $end
$scope module monitor $end
$var wire 1 Y clk $end
$var wire 1 Z rst_n $end
$var reg 1 u req_valid $end
$var reg 1 v req_ready $end
$var reg 1 w req_write $end
$var reg 32 x req_addr [31:0] $end
$var reg 32 y req_wdata [31:0] $end
$var reg 4 z req_wstrb [3:0] $end
$var reg 1 { req_last $end
$var reg 1 | rsp_valid $end
$var reg 1 } rsp_ready $end
$var reg 32 ~ rsp_rdata [31:0] $end
$var reg 1 !! rsp_error $end
$upscope $end
$upscope $end
$scope module u_protocol_compile $end
$var wire 1 Y clk $end
$var wire 1 Z rst_n $end
$var reg 32 G definition_checksum [31:0] $end
$scope module axil_bus $end
$var wire 1 Y clk $end
$var wire 1 Z rst_n $end
$var reg 1 %! awvalid $end
$var reg 1 &! awready $end
$var reg 12 '! awaddr [11:0] $end
$var reg 1 (! wvalid $end
$var reg 1 )! wready $end
$var reg 32 *! wdata [31:0] $end
$var reg 4 +! wstrb [3:0] $end
$var reg 1 ,! bvalid $end
$var reg 1 -! bready $end
$var reg 2 .! bresp [1:0] $end
$var reg 1 /! arvalid $end
$var reg 1 0! arready $end
$var reg 12 1! araddr [11:0] $end
$var reg 1 2! rvalid $end
$var reg 1 3! rready $end
$var reg 32 4! rdata [31:0] $end
$var reg 2 5! rresp [1:0] $end
$var parameter 0 6! ADDR_WIDTH [31:0] $end
$var parameter 0 7! DATA_WIDTH [31:0] $end
$var parameter 0 8! STRB_WIDTH [31:0] $end
$scope module manager $end
$var reg 1 &! awready $end
$var reg 1 )! wready $end
$var reg 1 ,! bvalid $end
$var reg 2 .! bresp [1:0] $end
$var reg 1 0! arready $end
$var reg 1 2! rvalid $end
$var reg 32 4! rdata [31:0] $end
$var reg 2 5! rresp [1:0] $end
$var reg 1 %! awvalid $end
$var reg 12 '! awaddr [11:0] $end
$var reg 1 (! wvalid $end
$var reg 32 *! wdata [31:0] $end
$var reg 4 +! wstrb [3:0] $end
$var reg 1 -! bready $end
$var reg 1 /! arvalid $end
$var reg 12 1! araddr [11:0] $end
$var reg 1 3! rready $end
$upscope $end
$scope module subordinate $end
$var reg 1 %! awvalid $end
$var reg 12 '! awaddr [11:0] $end
$var reg 1 (! wvalid $end
$var reg 32 *! wdata [31:0] $end
$var reg 4 +! wstrb [3:0] $end
$var reg 1 -! bready $end
$var reg 1 /! arvalid $end
$var reg 12 1! araddr [11:0] $end
$var reg 1 3! rready $end
$var reg 1 &! awready $end
$var reg 1 )! wready $end
$var reg 1 ,! bvalid $end
$var reg 2 .! bresp [1:0] $end
$var reg 1 0! arready $end
$var reg 1 2! rvalid $end
$var reg 32 4! rdata [31:0] $end
$var reg 2 5! rresp [1:0] $end
$upscope $end
$scope module monitor $end
$var wire 1 Y clk $end
$var wire 1 Z rst_n $end
$var reg 1 %! awvalid $end
$var reg 1 &! awready $end
$var reg 12 '! awaddr [11:0] $end
$var reg 1 (! wvalid $end
$var reg 1 )! wready $end
$var reg 32 *! wdata [31:0] $end
$var reg 4 +! wstrb [3:0] $end
$var reg 1 ,! bvalid $end
$var reg 1 -! bready $end
$var reg 2 .! bresp [1:0] $end
$var reg 1 /! arvalid $end
$var reg 1 0! arready $end
$var reg 12 1! araddr [11:0] $end
$var reg 1 2! rvalid $end
$var reg 1 3! rready $end
$var reg 32 4! rdata [31:0] $end
$var reg 2 5! rresp [1:0] $end
$upscope $end
$upscope $end
$scope module memory_bus $end
$var wire 1 Y clk $end
$var wire 1 Z rst_n $end
$var reg 1 9! req_valid $end
$var reg 1 :! req_ready $end
$var reg 1 ;! req_write $end
$var reg 32 <! req_addr [31:0] $end
$var reg 32 =! req_wdata [31:0] $end
$var reg 4 >! req_wstrb [3:0] $end
$var reg 1 ?! req_last $end
$var reg 1 @! rsp_valid $end
$var reg 1 A! rsp_ready $end
$var reg 32 B! rsp_rdata [31:0] $end
$var reg 1 C! rsp_error $end
$var parameter 0 D! ADDR_WIDTH [31:0] $end
$var parameter 0 E! DATA_WIDTH [31:0] $end
$var parameter 0 F! STRB_WIDTH [31:0] $end
$scope module initiator $end
$var reg 1 :! req_ready $end
$var reg 1 @! rsp_valid $end
$var reg 32 B! rsp_rdata [31:0] $end
$var reg 1 C! rsp_error $end
$var reg 1 9! req_valid $end
$var reg 1 ;! req_write $end
$var reg 32 <! req_addr [31:0] $end
$var reg 32 =! req_wdata [31:0] $end
$var reg 4 >! req_wstrb [3:0] $end
$var reg 1 ?! req_last $end
$var reg 1 A! rsp_ready $end
$upscope $end
$scope module target $end
$var reg 1 9! req_valid $end
$var reg 1 ;! req_write $end
$var reg 32 <! req_addr [31:0] $end
$var reg 32 =! req_wdata [31:0] $end
$var reg 4 >! req_wstrb [3:0] $end
$var reg 1 ?! req_last $end
$var reg 1 A! rsp_ready $end
$var reg 1 :! req_ready $end
$var reg 1 @! rsp_valid $end
$var reg 32 B! rsp_rdata [31:0] $end
$var reg 1 C! rsp_error $end
$upscope $end
$scope module monitor $end
$var wire 1 Y clk $end
$var wire 1 Z rst_n $end
$var reg 1 9! req_valid $end
$var reg 1 :! req_ready $end
$var reg 1 ;! req_write $end
$var reg 32 <! req_addr [31:0] $end
$var reg 32 =! req_wdata [31:0] $end
$var reg 4 >! req_wstrb [3:0] $end
$var reg 1 ?! req_last $end
$var reg 1 @! rsp_valid $end
$var reg 1 A! rsp_ready $end
$var reg 32 B! rsp_rdata [31:0] $end
$var reg 1 C! rsp_error $end
$upscope $end
$upscope $end
$scope module stream_bus $end
$var wire 1 Y clk $end
$var wire 1 Z rst_n $end
$var reg 1 G! valid $end
$var reg 1 H! ready $end
$var reg 32 I! data [31:0] $end
$var reg 1 J! last $end
$var reg 1 K! user [0:0] $end
$var parameter 0 L! DATA_WIDTH [31:0] $end
$var parameter 0 M! USER_WIDTH [31:0] $end
$scope module source $end
$var reg 1 H! ready $end
$var reg 1 G! valid $end
$var reg 32 I! data [31:0] $end
$var reg 1 J! last $end
$var reg 1 K! user [0:0] $end
$upscope $end
$scope module sink $end
$var reg 1 G! valid $end
$var reg 32 I! data [31:0] $end
$var reg 1 J! last $end
$var reg 1 K! user [0:0] $end
$var reg 1 H! ready $end
$upscope $end
$scope module monitor $end
$var wire 1 Y clk $end
$var wire 1 Z rst_n $end
$var reg 1 G! valid $end
$var reg 1 H! ready $end
$var reg 32 I! data [31:0] $end
$var reg 1 J! last $end
$var reg 1 K! user [0:0] $end
$upscope $end
$upscope $end
$scope module interrupt_bus $end
$var wire 1 Y clk $end
$var wire 1 Z rst_n $end
$var reg 5 N! sources [4:0] $end
$var reg 5 O! pending [4:0] $end
$var reg 5 P! enable [4:0] $end
$var reg 5 Q! clear [4:0] $end
$var reg 1 R! irq $end
$var parameter 0 S! SOURCE_COUNT [31:0] $end
$scope module source $end
$var reg 5 N! sources [4:0] $end
$upscope $end
$scope module controller $end
$var reg 5 N! sources [4:0] $end
$var reg 5 Q! clear [4:0] $end
$var reg 5 O! pending [4:0] $end
$var reg 5 P! enable [4:0] $end
$var reg 1 R! irq $end
$upscope $end
$scope module monitor $end
$var wire 1 Y clk $end
$var wire 1 Z rst_n $end
$var reg 5 N! sources [4:0] $end
$var reg 5 O! pending [4:0] $end
$var reg 5 P! enable [4:0] $end
$var reg 5 Q! clear [4:0] $end
$var reg 1 R! irq $end
$upscope $end
$upscope $end
$scope module command_bus $end
$var wire 1 Y clk $end
$var wire 1 Z rst_n $end
$var reg 1 T! cmd_valid $end
$var reg 1 U! cmd_ready $end
$var reg 167 V! cmd $end
$var reg 1 W! cmd_full $end
$var reg 1 X! rsp_valid $end
$var reg 1 Y! rsp_ready $end
$var reg 88 Z! rsp $end
$var reg 1 [! rsp_empty $end
$scope module producer $end
$var reg 1 U! cmd_ready $end
$var reg 1 W! cmd_full $end
$var reg 1 X! rsp_valid $end
$var reg 88 Z! rsp $end
$var reg 1 [! rsp_empty $end
$var reg 1 T! cmd_valid $end
$var reg 167 V! cmd $end
$var reg 1 Y! rsp_ready $end
$upscope $end
$scope module consumer $end
$var reg 1 T! cmd_valid $end
$var reg 167 V! cmd $end
$var reg 1 Y! rsp_ready $end
$var reg 1 U! cmd_ready $end
$var reg 1 W! cmd_full $end
$var reg 1 X! rsp_valid $end
$var reg 88 Z! rsp $end
$var reg 1 [! rsp_empty $end
$upscope $end
$scope module monitor $end
$var wire 1 Y clk $end
$var wire 1 Z rst_n $end
$var reg 1 T! cmd_valid $end
$var reg 1 U! cmd_ready $end
$var reg 167 V! cmd $end
$var reg 1 W! cmd_full $end
$var reg 1 X! rsp_valid $end
$var reg 1 Y! rsp_ready $end
$var reg 88 Z! rsp $end
$var reg 1 [! rsp_empty $end
$upscope $end
$upscope $end
$upscope $end
$scope module u_gemm_accelerator $end
$var wire 1 Y clk $end
$var wire 1 Z rst_n $end
$var wire 1 [ command_valid $end
$var reg 1 $ command_ready $end
$var reg 167 j command $end
$var reg 1 . response_valid $end
$var wire 1 e response_ready $end
$var reg 88 k response $end
$var reg 1 @ busy $end
$var reg 1 A done $end
$var reg 1 B error $end
$var reg 4 C error_code $end
$var reg 1 D active_cycle $end
$var reg 1 E stalled_cycle $end
$var reg 16 F outputs_completed_event [15:0] $end
$var reg 4 \! state $end
$var reg 88 ]! response_reg $end
$var reg 8 ^! active_flags [7:0] $end
$var reg 16 _! active_command_id [15:0] $end
$var reg 8 `! active_m [7:0] $end
$var reg 8 a! active_n [7:0] $end
$var reg 8 b! active_k [7:0] $end
$var reg 32 c! matrix_a_base $end
$var reg 32 d! matrix_b_base $end
$var reg 32 e! matrix_c_base $end
$var reg 8 f! tile_row_base [7:0] $end
$var reg 8 g! tile_column_base [7:0] $end
$var reg 8 h! k_index [7:0] $end
$var reg 2 i! load_row_index [1:0] $end
$var reg 2 j! load_column_index [1:0] $end
$var reg 2 k! write_row_index [1:0] $end
$var reg 2 l! write_column_index [1:0] $end
$var reg 1 m! tile_accumulation_complete $end
$var reg 16 n! outputs_written [15:0] $end
$var reg 16 o! expected_outputs [15:0] $end
$var reg 32 p! active_cycles $end
$var reg 1 q! signed_mode $end
$var reg 1 r! saturate_mode $end
$var reg 8 s! valid_tile_rows [7:0] $end
$var reg 8 t! valid_tile_columns [7:0] $end
$var reg 1 u! command_fire $end
$var reg 1 v! memory_request_fire $end
$var reg 1 w! memory_response_fire $end
$var reg 1 x! request_wait_state $end
$var reg 1 y! response_wait_state $end
$var reg 32 z! current_element_address $end
$var reg 32 {! current_word_address $end
$var reg 16 |! response_element $end
$var reg 16 }! output_element $end
$var reg 32 ~! output_word $end
$var reg 4 !" output_strobe $end
$var reg 4 "" command_validation_error $end
$var reg 24 #" matrix_a_storage_bytes $end
$var reg 24 $" matrix_b_storage_bytes $end
$var reg 24 %" matrix_c_storage_bytes $end
$var parameter 0 &" DATA_WIDTH [31:0] $end
$var parameter 0 '" ELEMENT_WIDTH [31:0] $end
$var parameter 0 (" ACCUM_WIDTH [31:0] $end
$var parameter 0 )" MAX_M [31:0] $end
$var parameter 0 *" MAX_N [31:0] $end
$var parameter 0 +" MAX_K [31:0] $end
$var parameter 0 ," TILE_M [31:0] $end
$var parameter 0 -" TILE_N [31:0] $end
$var parameter 0 ." GEMM_DATA_BYTES [31:0] $end
$var parameter 0 /" ELEMENT_BYTES [31:0] $end
$var parameter 0 0" ELEMENTS_PER_WORD [31:0] $end
$var parameter 0 1" REQUIRED_ACCUM_WIDTH [31:0] $end
$var parameter 0 2" TILE_M_INDEX_WIDTH [31:0] $end
$var parameter 0 3" TILE_N_INDEX_WIDTH [31:0] $end
$var parameter 0 4" MAXIMUM_CYCLE_COUNT $end
$scope module memory_port $end
$var wire 1 Y clk $end
$var wire 1 Z rst_n $end
$var reg 1 u req_valid $end
$var reg 1 v req_ready $end
$var reg 1 w req_write $end
$var reg 32 x req_addr [31:0] $end
$var reg 32 y req_wdata [31:0] $end
$var reg 4 z req_wstrb [3:0] $end
$var reg 1 { req_last $end
$var reg 1 | rsp_valid $end
$var reg 1 } rsp_ready $end
$var reg 32 ~ rsp_rdata [31:0] $end
$var reg 1 !! rsp_error $end
$var parameter 0 "! ADDR_WIDTH [31:0] $end
$var parameter 0 #! DATA_WIDTH [31:0] $end
$var parameter 0 $! STRB_WIDTH [31:0] $end
$scope module initiator $end
$var reg 1 v req_ready $end
$var reg 1 | rsp_valid $end
$var reg 32 ~ rsp_rdata [31:0] $end
$var reg 1 !! rsp_error $end
$var reg 1 u req_valid $end
$var reg 1 w req_write $end
$var reg 32 x req_addr [31:0] $end
$var reg 32 y req_wdata [31:0] $end
$var reg 4 z req_wstrb [3:0] $end
$var reg 1 { req_last $end
$var reg 1 } rsp_ready $end
$upscope $end
$scope module target $end
$var reg 1 u req_valid $end
$var reg 1 w req_write $end
$var reg 32 x req_addr [31:0] $end
$var reg 32 y req_wdata [31:0] $end
$var reg 4 z req_wstrb [3:0] $end
$var reg 1 { req_last $end
$var reg 1 } rsp_ready $end
$var reg 1 v req_ready $end
$var reg 1 | rsp_valid $end
$var reg 32 ~ rsp_rdata [31:0] $end
$var reg 1 !! rsp_error $end
$upscope $end
$scope module monitor $end
$var wire 1 Y clk $end
$var wire 1 Z rst_n $end
$var reg 1 u req_valid $end
$var reg 1 v req_ready $end
$var reg 1 w req_write $end
$var reg 32 x req_addr [31:0] $end
$var reg 32 y req_wdata [31:0] $end
$var reg 4 z req_wstrb [3:0] $end
$var reg 1 { req_last $end
$var reg 1 | rsp_valid $end
$var reg 1 } rsp_ready $end
$var reg 32 ~ rsp_rdata [31:0] $end
$var reg 1 !! rsp_error $end
$upscope $end
$upscope $end
$scope begin Block280_21 $end
$var reg 32 5" lane [31:0] $end
$scope begin Block283_22 $end
$var reg 32 6" element_byte [31:0] $end
$upscope $end
$upscope $end
$scope begin Block381_24 $end
$var reg 32 7" row [31:0] $end
$scope begin Block383_25 $end
$var reg 32 8" column [31:0] $end
$upscope $end
$upscope $end
$scope begin Block387_26 $end
$var reg 32 9" column [31:0] $end
$upscope $end
$scope begin Block421_27 $end
$var reg 32 :" row [31:0] $end
$scope begin Block422_28 $end
$var reg 32 ;" column [31:0] $end
$upscope $end
$upscope $end
$scope begin Block504_29 $end
$var reg 32 <" row [31:0] $end
$scope begin Block505_30 $end
$var reg 32 =" column [31:0] $end
$upscope $end
$upscope $end
$scope begin Block572_31 $end
$var reg 32 >" row [31:0] $end
$scope begin Block573_32 $end
$var reg 32 ?" column [31:0] $end
$upscope $end
$upscope $end
$upscope $end
$upscope $end
$scope begin Block303_37 $end
$var reg 1 @" legal $end
$var reg 32 A" data [31:0] $end
$upscope $end
$upscope $end
$enddefinitions $end

#0
$dumpvars
0!
0!!
b0 !"
0"
b100000 "!
b0 ""
0#
b100000 #!
b100 #"
0$
b100 $!
b100 $"
b1001 %
0%!
b100 %"
b10000000000000000000000000000 &
0&!
b100000 &"
b10000000000000010000000000000 '
b0 '!
b10000 '"
b10000000000000100000000000000 (
0(!
b101000 ("
b1 )
0)!
b1000 )"
b1 *
b0 *!
b1000 *"
b1 +
b0 +!
b1000 +"
b0 ,
0,!
b100 ,"
b101100000000 -
0-!
b100 -"
x.
b0 .!
b100 ."
0/
0/!
b10 /"
bx 0
00!
b10 0"
bx 1
b0 1!
b100100 1"
bx 2
02!
b10 2"
bx 3
03!
b10 3"
bx 4
b0 4!
b11111111111111111111111111111111 4"
05
b0 5!
b10 5"
16
b1100 6!
b0 6"
x7
b100000 7!
b0 7"
bx 8
b100 8!
b0 8"
b0 9
09!
b0 9"
b0 :
0:!
b0 :"
x;
0;!
b0 ;"
0<
b0 <!
b0 <"
0=
b0 =!
b0 ="
b0 >
b0 >!
b0 >"
0?
1?!
b0 ?"
x@
0@!
x@"
xA
0A!
bx A"
xB
b0 B!
bx C
0C!
xD
b100000 D!
xE
b100000 E!
bx F
b100 F!
b1010011010011100100001101011111 G
0G!
b1 H
0H!
b11111111111111111011000111100000 I
b0 I!
b0 J
0J!
b0 K
0K!
b0 L
b100000 L!
b0 M
b1 M!
b0 N
b0 N!
1O
b0 O!
b0 P
b0 P!
b0 Q
b0 Q!
0R
0R!
0S
b101 S!
b0 T
0T!
b100000000000000 U
0U!
b10000000000000000000000000000 V
b0 V!
b10000000000000010000000000000 W
0W!
b10000000000000100000000000000 X
0X!
0Y
0Y!
0Z
b0 Z!
0[
1[!
b1001 \
bx \!
b10000000000000000000000000000 ]
bx ]!
b10000000000000010000000000000 ^
bx ^!
b10000000000000100000000000000 _
bx _!
b1 `
bx `!
b1 a
bx a!
b1 b
bx b!
b0 c
bx c!
b101100000000 d
bx d!
0e
bx e!
1f
bx f!
0g
bx g!
b0 h
bx h!
0i
bx i!
b10010001000000000000000000000000000000010000000000000010000000000000000100000000000001000000000000000000000000000000000000010000000100000001000000000000000101100000000 j
bx j!
bx k
bx k!
b10010001000000000000000000000000000000010000000000000010000000000000000100000000000001000000000000000000000000000000000000010000000100000001000000000000000101100000000 l
bx l!
b100000 m
xm!
b10000 n
bx n!
b101000 o
bx o!
b1000 p
bx p!
b1000 q
xq!
b1000 r
xr!
b100 s
bx s!
b100 t
bx t!
0u
0u!
1v
0v!
xw
0w!
bx x
xx!
b0 y
xy!
b0 z
bx z!
x{
bx {!
0|
b0 |!
0}
bx }!
b0 ~
b0 ~!
$end

#5000
1!
b11 !"
0.
b0 0
b0 1
b0 2
b0 3
b0 4
b10 5"
b10 6"
07
b100 7"
b0 8
b100 8"
0;
0@
0A
0B
b0 C
0D
0E
b0 F
1Y
b0 \!
b0 ]!
b0 ^!
b0 _!
b0 `!
b0 a!
b0 b!
b0 c!
b0 d!
b0 e!
b0 f!
b0 g!
b0 h!
b0 i!
b0 j!
b0 k
b0 k!
b0 l!
0m!
b0 n!
b0 o!
b0 p!
0q!
0r!
b0 s!
b0 t!
0w
b0 x
0x!
0y!
b0 z!
0{
b0 {!
b0 }!

#10000
0!
0Y

#15000
1!
b100 7"
b100 8"
1Y

#20000
0!
0Y

#25000
1!
b100 7"
b100 8"
1Y

#26000
b11 !"
1"
1$
b10 5"
b10 6"
1Z

#30000
0!
0Y

#35000
1!
b1 J
1Y

#36000
b11 !"
1#
b1000 #"
b1000 $"
b1000 %"
b10 )
b10 *
b10 +
b101100000001 -
b10 5"
b10 6"
b10000 H
1[
b10 `
b10 a
b10 b
b101100000001 d
b10010001000000000000000000000000000000010000000000000010000000000000000100000000000001000000000000000000000000000000000000100000001000000010000000000000000101100000001 j
b10010001000000000000000000000000000000010000000000000010000000000000000100000000000001000000000000000000000000000000000000100000001000000010000000000000000101100000001 l
1u!

#40000
0!
0Y

#45000
1!
b11 !"
0$
15
b10 5"
b10 6"
b10000000000000000000000000000 8
b100 :"
b100 ;"
1@
1D
b10 J
1Y
b1 \!
b101100000001 _!
b10 `!
b10 a!
b10 b!
b10000000000000000000000000000 c!
b10000000000000010000000000000 d!
b10000000000000100000000000000 e!
b100 o!
b10 s!
b10 t!
1u
0u!
1v!
b10000000000000000000000000000 x
1x!
b10000000000000000000000000000 z!
b10000000000000000000000000000 {!

#46000
b11 !"
0#
b10 5"
b10 6"
0[

#50000
0!
0Y

#55000
1!
b11 !"
05
b10 5"
b10 6"
1<
1=
b100000000000000001 >
1@"
b100000000000000001 A"
0E
b11 J
b1 K
1Y
b10 \!
1g
b100000000000000001 h
b1 p!
0u
0v!
1w!
0x!
1y!
1|
b1 |!
1}
b100000000000000001 ~

#60000
0!
0Y

#65000
1!
b11 !"
15
b10 5"
b10 6"
b10000000000000000000000000100 8
0<
0=
b100 J
1Y
b1 \!
0g
b1 i!
b10 p!
1u
1v!
0w!
b10000000000000000000000000100 x
1x!
0y!
b10000000000000000000000000100 z!
b10000000000000000000000000100 {!
0|
0}

#70000
0!
0Y

#75000
1!
b11 !"
05
b10 5"
b10 6"
1<
1=
b1000000000000000011 >
b1000000000000000011 A"
0E
b101 J
b10 K
1Y
b10 \!
1g
b1000000000000000011 h
b11 p!
0u
0v!
1w!
0x!
1y!
1|
b11 |!
1}
b1000000000000000011 ~

#80000
0!
0Y

#85000
1!
b11 !"
15
b10 5"
b10 6"
b10000000000000010000000000000 8
0<
0=
b110 J
1Y
b11 \!
0g
b100 p!
1u
1v!
0w!
b10000000000000010000000000000 x
1x!
0y!
b10000000000000010000000000000 z!
b10000000000000010000000000000 {!
0|
0}

#90000
0!
0Y

#95000
1!
b11 !"
05
b10 5"
b10 6"
1<
1=
b1 >
b1 A"
0E
b111 J
b11 K
1Y
b100 \!
1g
b1 h
b101 p!
0u
0v!
1w!
0x!
1y!
b10000000000000010000000000000 z!
1|
b1 |!
1}
b1 ~

#100000
0!
0Y

#105000
1!
b1100 !"
15
b10 5"
b10 6"
0<
0=
b1000 J
1Y
b11 \!
0g
b1 j!
b110 p!
1u
1v!
0w!
1x!
0y!
b10000000000000010000000000010 z!
0|
b0 |!
0}

#110000
0!
0Y

#115000
1!
b1100 !"
05
b10 5"
b10 6"
1<
1=
0E
b1001 J
b100 K
1Y
b100 \!
1g
b111 p!
0u
0v!
1w!
0x!
1y!
b10000000000000010000000000010 z!
1|
1}

#120000
0!
0Y

#125000
1!
b11 !"
b10 5"
b10 6"
b10000000000000000000000000100 8
0<
0=
b1010 J
1Y
b101 \!
0g
b1000 p!
0w!
b10000000000000000000000000100 x
0y!
b10000000000000000000000000100 z!
b10000000000000000000000000100 {!
0|
b1 |!
0}

#130000
0!
0Y

#135000
1!
b1100 !"
15
b10 5"
b10 6"
b10000000000000000000000000000 8
b10000000000000000 9
b100 <"
b100 ="
b1011 J
1Y
b1 \!
b1 h!
b0 i!
b1001 p!
1u
1v!
b10000000000000000000000000000 x
1x!
b10000000000000000 y
b10000000000000000000000000010 z!
b10000000000000000000000000000 {!
b0 |!
b1 }!
b10000000000000000 ~!

#140000
0!
0Y

#145000
1!
b1100 !"
05
b10 5"
b10 6"
1<
1=
b100000000000000001 >
b100000000000000001 A"
0E
b1100 J
b101 K
1Y
b10 \!
1g
b100000000000000001 h
b1010 p!
0u
0v!
1w!
0x!
1y!
1|
b10 |!
1}
b100000000000000001 ~
b10000000000000000 ~!

#150000
0!
0Y

#155000
1!
b1100 !"
15
b10 5"
b10 6"
b10000000000000000000000000100 8
0<
0=
b1101 J
1Y
b1 \!
0g
b1 i!
b1011 p!
1u
1v!
0w!
b10000000000000000000000000100 x
1x!
0y!
b10000000000000000000000000110 z!
b10000000000000000000000000100 {!
0|
0}
b10000000000000000 ~!

#160000
0!
0Y

#165000
1!
b1100 !"
05
b10 5"
b10 6"
1<
1=
b1000000000000000011 >
b1000000000000000011 A"
0E
b1110 J
b110 K
1Y
b10 \!
1g
b1000000000000000011 h
b1100 p!
0u
0v!
1w!
0x!
1y!
1|
b100 |!
1}
b1000000000000000011 ~
b10000000000000000 ~!

#170000
0!
0Y

#175000
1!
b11 !"
15
b10 5"
b10 6"
b10000000000000010000000000100 8
b1 9
0<
0=
b1111 J
1Y
b11 \!
0g
b0 j!
b1101 p!
1u
1v!
0w!
b10000000000000010000000000100 x
1x!
b1 y
0y!
b10000000000000010000000000100 z!
b10000000000000010000000000100 {!
0|
b11 |!
0}
b1 ~!

#180000
0!
0Y

#185000
1!
b11 !"
05
b10 5"
b10 6"
1<
1=
b10000000000000000 >
b10000000000000000 A"
0E
b10000 J
b111 K
1Y
b100 \!
1g
b10000000000000000 h
b1110 p!
0u
0v!
1w!
0x!
1y!
b10000000000000010000000000100 z!
1|
b0 |!
1}
b10000000000000000 ~
b1 ~!

#190000
0!
0Y

#195000
1!
b1100 !"
15
b10 5"
b10 6"
b10000000000000000 9
0<
0=
b10001 J
1Y
b11 \!
0g
b1 j!
b1111 p!
1u
1v!
0w!
1x!
b10000000000000000 y
0y!
b10000000000000010000000000110 z!
0|
b1 |!
0}
b10000000000000000 ~!

#200000
0!
0Y

