Images/vcd/primitive.vcd
$date
   Mon Jun 29 18:39:53 2026
$end

$version
  2024.2.0
$end

$timescale
  1ps
$end

$scope module artifact_primitive_tb $end
$var reg 1 ! clk $end
$var reg 1 " rst_n $end
$var reg 1 # fifo_push_valid $end
$var reg 1 $ fifo_push_ready $end
$var reg 8 % fifo_push_data [7:0] $end
$var reg 1 & fifo_pop_valid $end
$var reg 1 ' fifo_pop_ready $end
$var reg 8 ( fifo_pop_data [7:0] $end
$var reg 1 ) fifo_full $end
$var reg 1 * fifo_empty $end
$var reg 3 + fifo_occupancy [2:0] $end
$var reg 1 , fifo_one_push_valid $end
$var reg 1 - fifo_one_push_ready $end
$var reg 8 . fifo_one_push_data [7:0] $end
$var reg 1 / fifo_one_pop_valid $end
$var reg 1 0 fifo_one_pop_ready $end
$var reg 8 1 fifo_one_pop_data [7:0] $end
$var reg 1 2 fifo_one_full $end
$var reg 1 3 fifo_one_empty $end
$var reg 1 4 fifo_one_occupancy $end
$var reg 1 5 fifo_three_push_valid $end
$var reg 1 6 fifo_three_push_ready $end
$var reg 8 7 fifo_three_push_data [7:0] $end
$var reg 1 8 fifo_three_pop_valid $end
$var reg 1 9 fifo_three_pop_ready $end
$var reg 8 : fifo_three_pop_data [7:0] $end
$var reg 1 ; fifo_three_full $end
$var reg 1 < fifo_three_empty $end
$var reg 2 = fifo_three_occupancy [1:0] $end
$var reg 1 > skid_input_valid $end
$var reg 1 ? skid_input_ready $end
$var reg 8 @ skid_input_data [7:0] $end
$var reg 1 A skid_output_valid $end
$var reg 1 B skid_output_ready $end
$var reg 8 C skid_output_data [7:0] $end
$var reg 1 D ram_rd_en $end
$var reg 3 E ram_rd_addr [2:0] $end
$var reg 1 F ram_rd_valid $end
$var reg 32 G ram_rd_data [31:0] $end
$var reg 1 H ram_reg_rd_valid $end
$var reg 32 I ram_reg_rd_data [31:0] $end
$var reg 1 J ram_wr_en $end
$var reg 3 K ram_wr_addr [2:0] $end
$var reg 32 L ram_wr_data [31:0] $end
$var reg 4 M ram_wr_strb [3:0] $end
$var reg 1 N spm_rd_en $end
$var reg 32 O spm_rd_addr [31:0] $end
$var reg 1 P spm_rd_valid $end
$var reg 32 Q spm_rd_data [31:0] $end
$var reg 1 R spm_rd_error $end
$var reg 1 S spm_wr_en $end
$var reg 32 T spm_wr_addr [31:0] $end
$var reg 32 U spm_wr_data [31:0] $end
$var reg 4 V spm_wr_strb [3:0] $end
$var reg 1 W spm_wr_error $end
$var reg 32 X definition_checksum [31:0] $end
$var reg 8 Y phase [7:0] $end
$var integer 32 Z trace_fd [31:0] $end
$var parameter 32 [ LOCAL_SPM_BASE [31:0] $end
$var parameter 0 \ LOCAL_SPM_SIZE_BYTES [31:0] $end
$scope module dut $end
$var wire 1 ] clk $end
$var wire 1 ^ rst_n $end
$var wire 1 _ fifo_push_valid $end
$var reg 1 $ fifo_push_ready $end
$var wire 8 ` fifo_push_data [7:0] $end
$var reg 1 & fifo_pop_valid $end
$var wire 1 a fifo_pop_ready $end
$var reg 8 ( fifo_pop_data [7:0] $end
$var reg 1 ) fifo_full $end
$var reg 1 * fifo_empty $end
$var reg 3 + fifo_occupancy [2:0] $end
$var wire 1 b fifo_one_push_valid $end
$var reg 1 - fifo_one_push_ready $end
$var wire 8 c fifo_one_push_data [7:0] $end
$var reg 1 / fifo_one_pop_valid $end
$var wire 1 d fifo_one_pop_ready $end
$var reg 8 1 fifo_one_pop_data [7:0] $end
$var reg 1 2 fifo_one_full $end
$var reg 1 3 fifo_one_empty $end
$var reg 1 4 fifo_one_occupancy [0:0] $end
$var wire 1 e fifo_three_push_valid $end
$var reg 1 6 fifo_three_push_ready $end
$var wire 8 f fifo_three_push_data [7:0] $end
$var reg 1 8 fifo_three_pop_valid $end
$var wire 1 g fifo_three_pop_ready $end
$var reg 8 : fifo_three_pop_data [7:0] $end
$var reg 1 ; fifo_three_full $end
$var reg 1 < fifo_three_empty $end
$var reg 2 = fifo_three_occupancy [1:0] $end
$var wire 1 h skid_input_valid $end
$var reg 1 ? skid_input_ready $end
$var wire 8 i skid_input_data [7:0] $end
$var reg 1 A skid_output_valid $end
$var wire 1 j skid_output_ready $end
$var reg 8 C skid_output_data [7:0] $end
$var wire 1 k ram_rd_en $end
$var wire 3 l ram_rd_addr [2:0] $end
$var reg 1 F ram_rd_valid $end
$var reg 32 G ram_rd_data [31:0] $end
$var reg 1 H ram_reg_rd_valid $end
$var reg 32 I ram_reg_rd_data [31:0] $end
$var wire 1 m ram_wr_en $end
$var wire 3 n ram_wr_addr [2:0] $end
$var wire 32 o ram_wr_data [31:0] $end
$var wire 4 p ram_wr_strb [3:0] $end
$var wire 1 q spm_rd_en $end
$var wire 32 r spm_rd_addr [31:0] $end
$var reg 1 P spm_rd_valid $end
$var reg 32 Q spm_rd_data [31:0] $end
$var reg 1 R spm_rd_error $end
$var wire 1 s spm_wr_en $end
$var wire 32 t spm_wr_addr [31:0] $end
$var wire 32 u spm_wr_data [31:0] $end
$var wire 4 v spm_wr_strb [3:0] $end
$var reg 1 W spm_wr_error $end
$var reg 32 X definition_checksum [31:0] $end
$var parameter 0 w TEST_DATA_WIDTH [31:0] $end
$var parameter 0 x FIFO_DEPTH [31:0] $end
$var parameter 0 y FIFO_COUNT_WIDTH [31:0] $end
$var parameter 0 z FIFO_NON_POWER_OF_TWO_DEPTH [31:0] $end
$var parameter 0 { RAM_DATA_WIDTH [31:0] $end
$var parameter 0 | RAM_ADDR_WIDTH [31:0] $end
$var parameter 0 } RAM_STRB_WIDTH [31:0] $end
$var parameter 0 ~ TEST_SPM_SIZE_BYTES [31:0] $end
$scope module u_protocol_compile $end
$var wire 1 ] clk $end
$var wire 1 ^ rst_n $end
$var reg 32 X definition_checksum [31:0] $end
$scope module axil_bus $end
$var wire 1 ] clk $end
$var wire 1 ^ rst_n $end
$var reg 1 !! awvalid $end
$var reg 1 "! awready $end
$var reg 12 #! awaddr [11:0] $end
$var reg 1 $! wvalid $end
$var reg 1 %! wready $end
$var reg 32 &! wdata [31:0] $end
$var reg 4 '! wstrb [3:0] $end
$var reg 1 (! bvalid $end
$var reg 1 )! bready $end
$var reg 2 *! bresp [1:0] $end
$var reg 1 +! arvalid $end
$var reg 1 ,! arready $end
$var reg 12 -! araddr [11:0] $end
$var reg 1 .! rvalid $end
$var reg 1 /! rready $end
$var reg 32 0! rdata [31:0] $end
$var reg 2 1! rresp [1:0] $end
$var parameter 0 2! ADDR_WIDTH [31:0] $end
$var parameter 0 3! DATA_WIDTH [31:0] $end
$var parameter 0 4! STRB_WIDTH [31:0] $end
$scope module manager $end
$var reg 1 "! awready $end
$var reg 1 %! wready $end
$var reg 1 (! bvalid $end
$var reg 2 *! bresp [1:0] $end
$var reg 1 ,! arready $end
$var reg 1 .! rvalid $end
$var reg 32 0! rdata [31:0] $end
$var reg 2 1! rresp [1:0] $end
$var reg 1 !! awvalid $end
$var reg 12 #! awaddr [11:0] $end
$var reg 1 $! wvalid $end
$var reg 32 &! wdata [31:0] $end
$var reg 4 '! wstrb [3:0] $end
$var reg 1 )! bready $end
$var reg 1 +! arvalid $end
$var reg 12 -! araddr [11:0] $end
$var reg 1 /! rready $end
$upscope $end
$scope module subordinate $end
$var reg 1 !! awvalid $end
$var reg 12 #! awaddr [11:0] $end
$var reg 1 $! wvalid $end
$var reg 32 &! wdata [31:0] $end
$var reg 4 '! wstrb [3:0] $end
$var reg 1 )! bready $end
$var reg 1 +! arvalid $end
$var reg 12 -! araddr [11:0] $end
$var reg 1 /! rready $end
$var reg 1 "! awready $end
$var reg 1 %! wready $end
$var reg 1 (! bvalid $end
$var reg 2 *! bresp [1:0] $end
$var reg 1 ,! arready $end
$var reg 1 .! rvalid $end
$var reg 32 0! rdata [31:0] $end
$var reg 2 1! rresp [1:0] $end
$upscope $end
$scope module monitor $end
$var wire 1 ] clk $end
$var wire 1 ^ rst_n $end
$var reg 1 !! awvalid $end
$var reg 1 "! awready $end
$var reg 12 #! awaddr [11:0] $end
$var reg 1 $! wvalid $end
$var reg 1 %! wready $end
$var reg 32 &! wdata [31:0] $end
$var reg 4 '! wstrb [3:0] $end
$var reg 1 (! bvalid $end
$var reg 1 )! bready $end
$var reg 2 *! bresp [1:0] $end
$var reg 1 +! arvalid $end
$var reg 1 ,! arready $end
$var reg 12 -! araddr [11:0] $end
$var reg 1 .! rvalid $end
$var reg 1 /! rready $end
$var reg 32 0! rdata [31:0] $end
$var reg 2 1! rresp [1:0] $end
$upscope $end
$upscope $end
$scope module memory_bus $end
$var wire 1 ] clk $end
$var wire 1 ^ rst_n $end
$var reg 1 5! req_valid $end
$var reg 1 6! req_ready $end
$var reg 1 7! req_write $end
$var reg 32 8! req_addr [31:0] $end
$var reg 32 9! req_wdata [31:0] $end
$var reg 4 :! req_wstrb [3:0] $end
$var reg 1 ;! req_last $end
$var reg 1 <! rsp_valid $end
$var reg 1 =! rsp_ready $end
$var reg 32 >! rsp_rdata [31:0] $end
$var reg 1 ?! rsp_error $end
$var parameter 0 @! ADDR_WIDTH [31:0] $end
$var parameter 0 A! DATA_WIDTH [31:0] $end
$var parameter 0 B! STRB_WIDTH [31:0] $end
$scope module initiator $end
$var reg 1 6! req_ready $end
$var reg 1 <! rsp_valid $end
$var reg 32 >! rsp_rdata [31:0] $end
$var reg 1 ?! rsp_error $end
$var reg 1 5! req_valid $end
$var reg 1 7! req_write $end
$var reg 32 8! req_addr [31:0] $end
$var reg 32 9! req_wdata [31:0] $end
$var reg 4 :! req_wstrb [3:0] $end
$var reg 1 ;! req_last $end
$var reg 1 =! rsp_ready $end
$upscope $end
$scope module target $end
$var reg 1 5! req_valid $end
$var reg 1 7! req_write $end
$var reg 32 8! req_addr [31:0] $end
$var reg 32 9! req_wdata [31:0] $end
$var reg 4 :! req_wstrb [3:0] $end
$var reg 1 ;! req_last $end
$var reg 1 =! rsp_ready $end
$var reg 1 6! req_ready $end
$var reg 1 <! rsp_valid $end
$var reg 32 >! rsp_rdata [31:0] $end
$var reg 1 ?! rsp_error $end
$upscope $end
$scope module monitor $end
$var wire 1 ] clk $end
$var wire 1 ^ rst_n $end
$var reg 1 5! req_valid $end
$var reg 1 6! req_ready $end
$var reg 1 7! req_write $end
$var reg 32 8! req_addr [31:0] $end
$var reg 32 9! req_wdata [31:0] $end
$var reg 4 :! req_wstrb [3:0] $end
$var reg 1 ;! req_last $end
$var reg 1 <! rsp_valid $end
$var reg 1 =! rsp_ready $end
$var reg 32 >! rsp_rdata [31:0] $end
$var reg 1 ?! rsp_error $end
$upscope $end
$upscope $end
$scope module stream_bus $end
$var wire 1 ] clk $end
$var wire 1 ^ rst_n $end
$var reg 1 C! valid $end
$var reg 1 D! ready $end
$var reg 32 E! data [31:0] $end
$var reg 1 F! last $end
$var reg 1 G! user [0:0] $end
$var parameter 0 H! DATA_WIDTH [31:0] $end
$var parameter 0 I! USER_WIDTH [31:0] $end
$scope module source $end
$var reg 1 D! ready $end
$var reg 1 C! valid $end
$var reg 32 E! data [31:0] $end
$var reg 1 F! last $end
$var reg 1 G! user [0:0] $end
$upscope $end
$scope module sink $end
$var reg 1 C! valid $end
$var reg 32 E! data [31:0] $end
$var reg 1 F! last $end
$var reg 1 G! user [0:0] $end
$var reg 1 D! ready $end
$upscope $end
$scope module monitor $end
$var wire 1 ] clk $end
$var wire 1 ^ rst_n $end
$var reg 1 C! valid $end
$var reg 1 D! ready $end
$var reg 32 E! data [31:0] $end
$var reg 1 F! last $end
$var reg 1 G! user [0:0] $end
$upscope $end
$upscope $end
$scope module interrupt_bus $end
$var wire 1 ] clk $end
$var wire 1 ^ rst_n $end
$var reg 5 J! sources [4:0] $end
$var reg 5 K! pending [4:0] $end
$var reg 5 L! enable [4:0] $end
$var reg 5 M! clear [4:0] $end
$var reg 1 N! irq $end
$var parameter 0 O! SOURCE_COUNT [31:0] $end
$scope module source $end
$var reg 5 J! sources [4:0] $end
$upscope $end
$scope module controller $end
$var reg 5 J! sources [4:0] $end
$var reg 5 M! clear [4:0] $end
$var reg 5 K! pending [4:0] $end
$var reg 5 L! enable [4:0] $end
$var reg 1 N! irq $end
$upscope $end
$scope module monitor $end
$var wire 1 ] clk $end
$var wire 1 ^ rst_n $end
$var reg 5 J! sources [4:0] $end
$var reg 5 K! pending [4:0] $end
$var reg 5 L! enable [4:0] $end
$var reg 5 M! clear [4:0] $end
$var reg 1 N! irq $end
$upscope $end
$upscope $end
$scope module command_bus $end
$var wire 1 ] clk $end
$var wire 1 ^ rst_n $end
$var reg 1 P! cmd_valid $end
$var reg 1 Q! cmd_ready $end
$var reg 167 R! cmd $end
$var reg 1 S! cmd_full $end
$var reg 1 T! rsp_valid $end
$var reg 1 U! rsp_ready $end
$var reg 88 V! rsp $end
$var reg 1 W! rsp_empty $end
$scope module producer $end
$var reg 1 Q! cmd_ready $end
$var reg 1 S! cmd_full $end
$var reg 1 T! rsp_valid $end
$var reg 88 V! rsp $end
$var reg 1 W! rsp_empty $end
$var reg 1 P! cmd_valid $end
$var reg 167 R! cmd $end
$var reg 1 U! rsp_ready $end
$upscope $end
$scope module consumer $end
$var reg 1 P! cmd_valid $end
$var reg 167 R! cmd $end
$var reg 1 U! rsp_ready $end
$var reg 1 Q! cmd_ready $end
$var reg 1 S! cmd_full $end
$var reg 1 T! rsp_valid $end
$var reg 88 V! rsp $end
$var reg 1 W! rsp_empty $end
$upscope $end
$scope module monitor $end
$var wire 1 ] clk $end
$var wire 1 ^ rst_n $end
$var reg 1 P! cmd_valid $end
$var reg 1 Q! cmd_ready $end
$var reg 167 R! cmd $end
$var reg 1 S! cmd_full $end
$var reg 1 T! rsp_valid $end
$var reg 1 U! rsp_ready $end
$var reg 88 V! rsp $end
$var reg 1 W! rsp_empty $end
$upscope $end
$upscope $end
$upscope $end
$scope module u_fifo $end
$var wire 1 ] clk $end
$var wire 1 ^ rst_n $end
$var wire 1 _ push_valid $end
$var reg 1 $ push_ready $end
$var wire 8 ` push_data [7:0] $end
$var reg 1 & pop_valid $end
$var wire 1 a pop_ready $end
$var reg 8 ( pop_data [7:0] $end
$var reg 1 ) full $end
$var reg 1 * empty $end
$var reg 3 + occupancy [2:0] $end
$var reg 2 X! read_pointer [1:0] $end
$var reg 2 Y! write_pointer [1:0] $end
$var reg 1 Z! push_fire $end
$var reg 1 [! pop_fire $end
$var parameter 0 \! DATA_WIDTH [31:0] $end
$var parameter 0 ]! DEPTH [31:0] $end
$var parameter 0 ^! COUNT_WIDTH [31:0] $end
$var parameter 0 _! POINTER_WIDTH [31:0] $end
$var parameter 2 `! LAST_POINTER [1:0] $end
$upscope $end
$scope module u_fifo_one $end
$var wire 1 ] clk $end
$var wire 1 ^ rst_n $end
$var wire 1 b push_valid $end
$var reg 1 - push_ready $end
$var wire 8 c push_data [7:0] $end
$var reg 1 / pop_valid $end
$var wire 1 d pop_ready $end
$var reg 8 1 pop_data [7:0] $end
$var reg 1 2 full $end
$var reg 1 3 empty $end
$var reg 1 4 occupancy [0:0] $end
$var reg 1 a! read_pointer [0:0] $end
$var reg 1 b! write_pointer [0:0] $end
$var reg 1 c! push_fire $end
$var reg 1 d! pop_fire $end
$var parameter 0 e! DATA_WIDTH [31:0] $end
$var parameter 0 f! DEPTH [31:0] $end
$var parameter 0 g! COUNT_WIDTH [31:0] $end
$var parameter 0 h! POINTER_WIDTH [31:0] $end
$var parameter 1 i! LAST_POINTER [0:0] $end
$upscope $end
$scope module u_fifo_three $end
$var wire 1 ] clk $end
$var wire 1 ^ rst_n $end
$var wire 1 e push_valid $end
$var reg 1 6 push_ready $end
$var wire 8 f push_data [7:0] $end
$var reg 1 8 pop_valid $end
$var wire 1 g pop_ready $end
$var reg 8 : pop_data [7:0] $end
$var reg 1 ; full $end
$var reg 1 < empty $end
$var reg 2 = occupancy [1:0] $end
$var reg 2 j! read_pointer [1:0] $end
$var reg 2 k! write_pointer [1:0] $end
$var reg 1 l! push_fire $end
$var reg 1 m! pop_fire $end
$var parameter 0 n! DATA_WIDTH [31:0] $end
$var parameter 0 o! DEPTH [31:0] $end
$var parameter 0 p! COUNT_WIDTH [31:0] $end
$var parameter 0 q! POINTER_WIDTH [31:0] $end
$var parameter 2 r! LAST_POINTER [1:0] $end
$upscope $end
$scope module u_skid_buffer $end
$var wire 1 ] clk $end
$var wire 1 ^ rst_n $end
$var wire 1 h input_valid $end
$var reg 1 ? input_ready $end
$var wire 8 i input_data [7:0] $end
$var reg 1 A output_valid $end
$var wire 1 j output_ready $end
$var reg 8 C output_data [7:0] $end
$var reg 1 s! buffer_valid $end
$var reg 8 t! buffer_data [7:0] $end
$var parameter 0 u! DATA_WIDTH [31:0] $end
$upscope $end
$scope module u_ram $end
$var wire 1 ] clk $end
$var wire 1 ^ rst_n $end
$var wire 1 k rd_en $end
$var wire 3 l rd_addr [2:0] $end
$var reg 1 F rd_valid $end
$var reg 32 G rd_data [31:0] $end
$var wire 1 m wr_en $end
$var wire 3 n wr_addr [2:0] $end
$var wire 32 o wr_data [31:0] $end
$var wire 4 p wr_strb [3:0] $end
$var reg 32 v! ram_read_data [31:0] $end
$var reg 1 w! ram_read_valid $end
$var parameter 0 x! DATA_WIDTH [31:0] $end
$var parameter 0 y! ADDR_WIDTH [31:0] $end
$var parameter 0 z! REGISTER_OUTPUT $end
$var parameter 0 {! DEPTH [31:0] $end
$var parameter 0 |! STRB_WIDTH [31:0] $end
$scope begin Block39_61 $end
$var reg 32 }! byte_index [31:0] $end
$upscope $end
$upscope $end
$scope module u_registered_ram $end
$var wire 1 ] clk $end
$var wire 1 ^ rst_n $end
$var wire 1 k rd_en $end
$var wire 3 l rd_addr [2:0] $end
$var reg 1 H rd_valid $end
$var reg 32 I rd_data [31:0] $end
$var wire 1 m wr_en $end
$var wire 3 n wr_addr [2:0] $end
$var wire 32 o wr_data [31:0] $end
$var wire 4 p wr_strb [3:0] $end
$var reg 32 ~! ram_read_data [31:0] $end
$var reg 1 !" ram_read_valid $end
$var parameter 0 "" DATA_WIDTH [31:0] $end
$var parameter 0 #" ADDR_WIDTH [31:0] $end
$var parameter 0 $" REGISTER_OUTPUT $end
$var parameter 0 %" DEPTH [31:0] $end
$var parameter 0 &" STRB_WIDTH [31:0] $end
$scope begin Block39_71 $end
$var reg 32 '" byte_index [31:0] $end
$upscope $end
$upscope $end
$scope module u_scratchpad $end
$var wire 1 ] clk $end
$var wire 1 ^ rst_n $end
$var wire 1 q rd_en $end
$var wire 32 r rd_addr [31:0] $end
$var reg 1 P rd_valid $end
$var reg 32 Q rd_data [31:0] $end
$var reg 1 R rd_error $end
$var wire 1 s wr_en $end
$var wire 32 t wr_addr [31:0] $end
$var wire 32 u wr_data [31:0] $end
$var wire 4 v wr_strb [3:0] $end
$var reg 1 W wr_error $end
$var reg 1 (" ram_rd_en $end
$var reg 1 )" ram_wr_en $end
$var reg 4 *" ram_rd_addr [3:0] $end
$var reg 4 +" ram_wr_addr [3:0] $end
$var parameter 0 ," DATA_WIDTH [31:0] $end
$var parameter 0 -" SIZE_BYTES [31:0] $end
$var parameter 32 ." BASE_ADDR [31:0] $end
$var parameter 0 /" REGISTER_OUTPUT $end
$var parameter 0 0" DATA_BYTES [31:0] $end
$var parameter 0 1" BYTE_OFFSET_WIDTH [31:0] $end
$var parameter 0 2" WORD_COUNT [31:0] $end
$var parameter 0 3" RAM_ADDR_WIDTH [31:0] $end
$scope module u_ram $end
$var wire 1 ] clk $end
$var wire 1 ^ rst_n $end
$var wire 1 4" rd_en $end
$var wire 4 5" rd_addr [3:0] $end
$var reg 1 P rd_valid $end
$var reg 32 Q rd_data [31:0] $end
$var wire 1 6" wr_en $end
$var wire 4 7" wr_addr [3:0] $end
$var wire 32 u wr_data [31:0] $end
$var wire 4 v wr_strb [3:0] $end
$var reg 32 8" ram_read_data [31:0] $end
$var reg 1 9" ram_read_valid $end
$var parameter 0 :" DATA_WIDTH [31:0] $end
$var parameter 0 ;" ADDR_WIDTH [31:0] $end
$var parameter 0 <" REGISTER_OUTPUT $end
$var parameter 0 =" DEPTH [31:0] $end
$var parameter 0 >" STRB_WIDTH [31:0] $end
$scope begin Block39_84 $end
$var reg 32 ?" byte_index [31:0] $end
$upscope $end
$upscope $end
$upscope $end
$upscope $end
$scope begin Block270_95 $end
$var reg 32 @" ram_value [31:0] $end
$upscope $end
$upscope $end
$enddefinitions $end

#0
$dumpvars
0!
0!!
x!"
0"
0"!
b100000 ""
0#
b0 #!
b11 #"
x$
0$!
1$"
b0 %
0%!
b1000 %"
x&
b0 &!
b100 &"
0'
b0 '!
b0 '"
bx (
0(!
0("
x)
0)!
0)"
x*
b0 *!
b0 *"
bx +
0+!
b0 +"
0,
0,!
b100000 ,"
x-
b0 -!
b1000000 -"
b0 .
0.!
b10000000000000000000000000000 ."
x/
0/!
0/"
00
b0 0!
b100 0"
bx 1
b0 1!
b10 1"
x2
b1100 2!
b10000 2"
x3
b100000 3!
b100 3"
x4
b100 4!
04"
05
05!
b0 5"
x6
06!
06"
b0 7
07!
b0 7"
x8
b0 8!
bx 8"
09
b0 9!
x9"
bx :
b0 :!
b100000 :"
x;
1;!
b100 ;"
x<
0<!
0<"
bx =
0=!
b10000 ="
0>
b0 >!
b100 >"
x?
0?!
b0 ?"
b0 @
b100000 @!
bx @"
xA
b100000 A!
0B
b100 B!
bx C
0C!
0D
0D!
b0 E
b0 E!
xF
0F!
bx G
0G!
xH
b100000 H!
bx I
b1 I!
0J
b0 J!
b0 K
b0 K!
b0 L
b0 L!
b0 M
b0 M!
0N
0N!
b0 O
b101 O!
xP
0P!
bx Q
0Q!
0R
b0 R!
0S
0S!
b0 T
0T!
b0 U
0U!
b0 V
b0 V!
0W
1W!
b1010011010011100100001101011111 X
bx X!
b1 Y
bx Y!
b11111111111111111011000111100000 Z
0Z!
b10000000000000000000000000000 [
0[!
b1000000 \
b1000 \!
0]
b100 ]!
0^
b11 ^!
0_
b10 _!
b0 `
b11 `!
0a
xa!
0b
xb!
b0 c
0c!
0d
0d!
0e
b1000 e!
b0 f
b1 f!
0g
b1 g!
0h
b1 h!
b0 i
0i!
0j
bx j!
0k
bx k!
b0 l
0l!
0m
0m!
b0 n
b1000 n!
b0 o
b11 o!
b0 p
b10 p!
0q
b10 q!
b0 r
b10 r!
0s
xs!
b0 t
bx t!
b0 u
b1000 u!
b0 v
bx v!
b1000 w
xw!
b100 x
b100000 x!
b11 y
b11 y!
b11 z
0z!
b100000 {
b1000 {!
b11 |
b100 |!
b100 }
b0 }!
b1000000 ~
bx ~!
$end

#5000
1!
0!"
1$
0&
b100 '"
0)
1*
b0 +
1-
0/
02
13
04
16
08
09"
0;
1<
b0 =
1?
b100 ?"
0A
b0 C
0F
0H
0P
b0 X!
b0 Y!
1]
0a!
0b!
b0 j!
b0 k!
0s!
0w!
b100 }!

#10000
0!
0]

#15000
1!
b100 '"
b100 ?"
1]
b100 }!

#20000
0!
0]

#25000
1!
b100 '"
b100 ?"
1]
b100 }!

#26000
1"
1^

#30000
0!
0]

#35000
1!
b100 '"
b100 ?"
1]
b100 }!

#36000
1#
b10001 %
b10000 Y
1Z!
1_
b10001 `

#40000
0!
0]

#45000
1!
1&
b100 '"
b10001 (
0*
b1 +
b100 ?"
b1 Y!
1]
b100 }!

#46000
0#
b0 %
0Z!
0_
b0 `

#47000
1#
b100010 %
1Z!
1_
b100010 `

#50000
0!
0]

#55000
1!
b100 '"
b10 +
b100 ?"
b10 Y!
1]
b100 }!

#56000
0#
b0 %
0Z!
0_
b0 `

#57000
1#
b110011 %
1Z!
1_
b110011 `

#60000
0!
0]

#65000
1!
b100 '"
b11 +
b100 ?"
b11 Y!
1]
b100 }!

#66000
0#
b0 %
0Z!
0_
b0 `

#67000
1#
b1000100 %
1Z!
1_
b1000100 `

#70000
0!
0]

#75000
1!
0$
b100 '"
1)
b100 +
b100 ?"
b0 Y!
0Z!
1]
b100 }!

#76000
0#
b0 %
0_
b0 `

#77000
1#
b1010101 %
1_
b1010101 `

#80000
0!
0]

#85000
1!
b100 '"
b100 ?"
1]
b100 }!

#86000
1$
1'
1Z!
1[!
1a

#90000
0!
0]

#95000
1!
b100 '"
b100010 (
b100 ?"
b1 X!
b1 Y!
1]
b100 }!

#96000
0#
1'
0Z!
0_

#100000
0!
0]

#105000
1!
b100 '"
b110011 (
0)
b11 +
b100 ?"
b10 X!
1]
b100 }!

#106000
0'
0[!
0a

#107000
1'
1[!
1a

#110000
0!
0]

#115000
1!
b100 '"
b1000100 (
b10 +
b100 ?"
b11 X!
1]
b100 }!

#116000
0'
0[!
0a

#117000
1'
1[!
1a

#120000
0!
0]

#125000
1!
b100 '"
b1010101 (
b1 +
b100 ?"
b0 X!
1]
b100 }!

#126000
0'
0[!
0a

#127000
1'
1[!
1a

#130000
0!
0]

#135000
1!
0&
b100 '"
b100010 (
1*
b0 +
b100 ?"
b1 X!
0[!
1]
b100 }!

#136000
0'
0a

#137000
0"
b0 %
b100000 Y
0^
b0 `

#140000
0!
0]

#145000
1!
b100 '"
b1010101 (
b100 ?"
b0 X!
b0 Y!
1]
b100 }!

#150000
0!
0]

#155000
1!
b100 '"
b100 ?"
1]
b100 }!

#160000
0!
0]

#165000
1!
b100 '"
b100 ?"
1]
b100 }!

#166000
1"
1^

#170000
0!
0]

#175000
1!
b100 '"
b100 ?"
1]
b100 }!

#176000
1,
b110001 .
1b
b110001 c
1c!

#180000
0!
0]

#185000
1!
b100 '"
0-
1/
b110001 1
12
03
14
b100 ?"
1]
0c!
b100 }!

#186000
1-
b1100010 .
10
b1100010 c
1c!
1d
1d!

#190000
0!
0]

#195000
1!
b100 '"
b1100010 1
b100 ?"
1]
b100 }!

#196000
0,
10
0b
0c!

#200000
0!
0]

#205000
1!
b100 '"
0/
02
13
04
b100 ?"
1]
0d!
b100 }!

#206000
0"
b0 .
00
b110000 Y
0^
b0 c
0d

#210000
0!
0]

#215000
1!
b100 '"
b100 ?"
1]
b100 }!

#220000
0!
0]

#225000
1!
b100 '"
b100 ?"
1]
b100 }!

#230000
0!
0]

#235000
1!
b100 '"
b100 ?"
1]
b100 }!

#236000
1"
1^

#240000
0!
0]

#245000
1!
b100 '"
b100 ?"
1]
b100 }!

#246000
15
b10111 7
1e
b10111 f
1l!

#250000
0!
0]

#255000
1!
b100 '"
18
b10111 :
0<
b1 =
b100 ?"
1]
b1 k!
b100 }!

#256000
b101001 7
b101001 f

#260000
0!
0]

#265000
1!
b100 '"
b10 =
b100 ?"
1]
b10 k!
b100 }!

#266000
b111011 7
b111011 f

#270000
0!
0]

#275000
1!
b100 '"
06
1;
b11 =
b100 ?"
1]
b0 k!
0l!
b100 }!

#276000
05
16
19
0e
1g
1m!

#280000
0!
0]

#285000
1!
b100 '"
b101001 :
0;
b10 =
b100 ?"
1]
b1 j!
b100 }!

#290000
0!
0]

#295000
1!
b100 '"
b111011 :
b1 =
b100 ?"
1]
b10 j!
b100 }!

#300000
0!
0]

#305000
1!
b100 '"
08
b10111 :
1<
b0 =
b100 ?"
1]
b0 j!
0m!
b100 }!

#306000
0"
b0 7
09
b1000000 Y
0^
b0 f
0g

#310000
0!
0]

#315000
1!
b100 '"
b100 ?"
1]
b100 }!

#320000
0!
0]

#325000
1!
b100 '"
b100 ?"
1]
b100 }!

#330000
0!
0]

#335000
1!
b100 '"
b100 ?"
1]
b100 }!

#336000
1"
1^

#340000
0!
0]

#345000
1!
b100 '"
b100 ?"
1]
b100 }!

#346000
1>
b10010 @
1A
1B
b10010 C
1h
b10010 i
1j

#350000
0!
0]

#355000
1!
b100 '"
b100 ?"
1]
b100 }!

#356000
b110100 @
0B
b110100 C
b110100 i
0j

#360000
0!
0]

#365000
1!
b100 '"
0?
b100 ?"
1]
1s!
b110100 t!
b100 }!

#366000
0>
0h

#367000
1?
1B
1j

#370000
0!
0]

#375000
1!
b100 '"
b100 ?"
0A
1]
0s!
b100 }!

#376000
0"
b0 @
0B
b0 C
b1010000 Y
0^
b0 i
0j

#380000
0!
0]

#385000
1!
b100 '"
b100 ?"
1]
b100 }!

#390000
0!
0]

#395000
1!
b100 '"
b100 ?"
1]
b100 }!

#400000
0!
0]

#405000
1!
b100 '"
b100 ?"
1]
b100 }!

#406000
1"
1^

#410000
0!
0]

#415000
1!
b100 '"
b100 ?"
1]
b100 }!

#416000
1J
b1 K
b10001001000100011001101000100 L
b1111 M
1m
b1 n
b10001001000100011001101000100 o
b1111 p

#420000
0!
0]

#425000
1!
b100 '"
b100 ?"
1]
b100 }!

#426000
0J
b0 M
0m
b0 p

#427000
1D
b1 E
1k
b1 l

#430000
0!
0]

#435000
1!
1!"
b100 '"
b100 ?"
1F
b10001001000100011001101000100 G
1]
b10001001000100011001101000100 v!
1w!
b100 }!
b10001001000100011001101000100 ~!

#436000
0D
0k

#440000
0!
0]

#445000
1!
0!"
b100 '"
b100 ?"
0F
1H
b10001001000100011001101000100 I
1]
0w!
b100 }!

#446000
b10001001000100011001101000100 @"
1J
b10101010101110111100110011011101 L
b101 M
1m
b10101010101110111100110011011101 o
b101 p

#450000
0!
0]

#455000
1!
b100 '"
b100 ?"
0H
1]
b100 }!

#456000
0J
b0 M
0m
b0 p

#457000
1D
1k

#460000
0!
0]

#465000
1!
1!"
b100 '"
b100 ?"
1F
b10001101110110011001111011101 G
1]
b10001101110110011001111011101 v!
1w!
b100 }!
b10001101110110011001111011101 ~!

#466000
0D
0k

#470000
0!
0]

#475000
1!
0!"
b100 '"
b100 ?"
0F
1H
b10001101110110011001111011101 I
1]
0w!
b100 }!

#476000
b10001101110110011001111011101 @"
1J
b10 K
b11001010111111101011101010111110 L
b1111 M
1m
b10 n
b11001010111111101011101010111110 o
b1111 p

#480000
0!
0]

