Images/vcd/reduction.vcd
$date
   Mon Jun 29 18:40:36 2026
$end

$version
  2024.2.0
$end

$timescale
  1ps
$end

$scope module artifact_reduction_tb $end
$var reg 1 ! clk $end
$var reg 1 " rst_n $end
$var reg 1 # command_valid $end
$var reg 1 $ command_ready $end
$var reg 4 % command_opcode [3:0] $end
$var reg 32 & command_src0_addr [31:0] $end
$var reg 32 ' command_dst_addr [31:0] $end
$var reg 16 ( command_length [15:0] $end
$var reg 8 ) command_flags [7:0] $end
$var reg 16 * command_id [15:0] $end
$var reg 1 + response_valid $end
$var reg 1 , response_ready $end
$var reg 16 - response_command_id [15:0] $end
$var reg 4 . response_opcode [3:0] $end
$var reg 4 / response_error [3:0] $end
$var reg 32 0 response_result [31:0] $end
$var reg 32 1 response_cycles [31:0] $end
$var reg 1 2 memory_req_valid $end
$var reg 1 3 memory_req_ready $end
$var reg 1 4 memory_req_write $end
$var reg 32 5 memory_req_addr [31:0] $end
$var reg 32 6 memory_req_wdata [31:0] $end
$var reg 4 7 memory_req_wstrb [3:0] $end
$var reg 1 8 memory_req_last $end
$var reg 1 9 memory_rsp_valid $end
$var reg 1 : memory_rsp_ready $end
$var reg 32 ; memory_rsp_rdata [31:0] $end
$var reg 1 < memory_rsp_error $end
$var reg 1 = busy $end
$var reg 1 > done $end
$var reg 1 ? error $end
$var reg 4 @ error_code [3:0] $end
$var reg 1 A active_cycle $end
$var reg 1 B stalled_cycle $end
$var reg 16 C elements_completed_event [15:0] $end
$var reg 32 D definition_checksum [31:0] $end
$var reg 8 E phase [7:0] $end
$var integer 32 F trace_fd [31:0] $end
$var integer 32 G cycle_count [31:0] $end
$var integer 32 H read_count [31:0] $end
$var integer 32 I write_count [31:0] $end
$var integer 32 J stall_count [31:0] $end
$var reg 1 K ready_enable $end
$var integer 32 L ready_modulus [31:0] $end
$var integer 32 M ready_block_residue [31:0] $end
$var reg 1 N fail_next_read $end
$var reg 1 O fail_next_write $end
$var reg 4 P last_write_strobe [3:0] $end
$var parameter 0 Q SPM_WORDS [31:0] $end
$var parameter 32 R SRC_BASE [31:0] $end
$var parameter 32 S DST_BASE [31:0] $end
$scope module dut $end
$var wire 1 T clk $end
$var wire 1 U rst_n $end
$var wire 1 V command_valid $end
$var reg 1 $ command_ready $end
$var wire 4 W command_opcode [3:0] $end
$var wire 32 X command_src0_addr [31:0] $end
$var wire 32 Y command_dst_addr [31:0] $end
$var wire 16 Z command_length [15:0] $end
$var wire 8 [ command_flags [7:0] $end
$var wire 16 \ command_id [15:0] $end
$var reg 1 + response_valid $end
$var wire 1 ] response_ready $end
$var reg 16 - response_command_id [15:0] $end
$var reg 4 . response_opcode [3:0] $end
$var reg 4 / response_error [3:0] $end
$var reg 32 0 response_result [31:0] $end
$var reg 32 1 response_cycles [31:0] $end
$var reg 1 2 memory_req_valid $end
$var wire 1 ^ memory_req_ready $end
$var reg 1 4 memory_req_write $end
$var reg 32 5 memory_req_addr [31:0] $end
$var reg 32 6 memory_req_wdata [31:0] $end
$var reg 4 7 memory_req_wstrb [3:0] $end
$var reg 1 8 memory_req_last $end
$var wire 1 _ memory_rsp_valid $end
$var reg 1 : memory_rsp_ready $end
$var wire 32 ` memory_rsp_rdata [31:0] $end
$var wire 1 a memory_rsp_error $end
$var reg 1 = busy $end
$var reg 1 > done $end
$var reg 1 ? error $end
$var reg 4 @ error_code [3:0] $end
$var reg 1 A active_cycle $end
$var reg 1 B stalled_cycle $end
$var reg 16 C elements_completed_event [15:0] $end
$var reg 32 D definition_checksum [31:0] $end
$var reg 167 b command $end
$var reg 88 c response_payload $end
$var reg 167 d xilinx_isim_temp_25_ln49_blkAssignCaching $end
$var parameter 0 e DATA_WIDTH [31:0] $end
$var parameter 0 f ELEMENT_WIDTH [31:0] $end
$var parameter 0 g ACCUM_WIDTH [31:0] $end
$var parameter 0 h MAX_REDUCTION_LENGTH [31:0] $end
$scope module memory_bus $end
$var wire 1 T clk $end
$var wire 1 U rst_n $end
$var reg 1 i req_valid $end
$var reg 1 j req_ready $end
$var reg 1 k req_write $end
$var reg 32 l req_addr [31:0] $end
$var reg 32 m req_wdata [31:0] $end
$var reg 4 n req_wstrb [3:0] $end
$var reg 1 o req_last $end
$var reg 1 p rsp_valid $end
$var reg 1 q rsp_ready $end
$var reg 32 r rsp_rdata [31:0] $end
$var reg 1 s rsp_error $end
$var parameter 0 t ADDR_WIDTH [31:0] $end
$var parameter 0 u DATA_WIDTH [31:0] $end
$var parameter 0 v STRB_WIDTH [31:0] $end
$scope module initiator $end
$var reg 1 j req_ready $end
$var reg 1 p rsp_valid $end
$var reg 32 r rsp_rdata [31:0] $end
$var reg 1 s rsp_error $end
$var reg 1 i req_valid $end
$var reg 1 k req_write $end
$var reg 32 l req_addr [31:0] $end
$var reg 32 m req_wdata [31:0] $end
$var reg 4 n req_wstrb [3:0] $end
$var reg 1 o req_last $end
$var reg 1 q rsp_ready $end
$upscope $end
$scope module target $end
$var reg 1 i req_valid $end
$var reg 1 k req_write $end
$var reg 32 l req_addr [31:0] $end
$var reg 32 m req_wdata [31:0] $end
$var reg 4 n req_wstrb [3:0] $end
$var reg 1 o req_last $end
$var reg 1 q rsp_ready $end
$var reg 1 j req_ready $end
$var reg 1 p rsp_valid $end
$var reg 32 r rsp_rdata [31:0] $end
$var reg 1 s rsp_error $end
$upscope $end
$scope module monitor $end
$var wire 1 T clk $end
$var wire 1 U rst_n $end
$var reg 1 i req_valid $end
$var reg 1 j req_ready $end
$var reg 1 k req_write $end
$var reg 32 l req_addr [31:0] $end
$var reg 32 m req_wdata [31:0] $end
$var reg 4 n req_wstrb [3:0] $end
$var reg 1 o req_last $end
$var reg 1 p rsp_valid $end
$var reg 1 q rsp_ready $end
$var reg 32 r rsp_rdata [31:0] $end
$var reg 1 s rsp_error $end
$upscope $end
$upscope $end
$scope module u_protocol_compile $end
$var wire 1 T clk $end
$var wire 1 U rst_n $end
$var reg 32 D definition_checksum [31:0] $end
$scope module axil_bus $end
$var wire 1 T clk $end
$var wire 1 U rst_n $end
$var reg 1 w awvalid $end
$var reg 1 x awready $end
$var reg 12 y awaddr [11:0] $end
$var reg 1 z wvalid $end
$var reg 1 { wready $end
$var reg 32 | wdata [31:0] $end
$var reg 4 } wstrb [3:0] $end
$var reg 1 ~ bvalid $end
$var reg 1 !! bready $end
$var reg 2 "! bresp [1:0] $end
$var reg 1 #! arvalid $end
$var reg 1 $! arready $end
$var reg 12 %! araddr [11:0] $end
$var reg 1 &! rvalid $end
$var reg 1 '! rready $end
$var reg 32 (! rdata [31:0] $end
$var reg 2 )! rresp [1:0] $end
$var parameter 0 *! ADDR_WIDTH [31:0] $end
$var parameter 0 +! DATA_WIDTH [31:0] $end
$var parameter 0 ,! STRB_WIDTH [31:0] $end
$scope module manager $end
$var reg 1 x awready $end
$var reg 1 { wready $end
$var reg 1 ~ bvalid $end
$var reg 2 "! bresp [1:0] $end
$var reg 1 $! arready $end
$var reg 1 &! rvalid $end
$var reg 32 (! rdata [31:0] $end
$var reg 2 )! rresp [1:0] $end
$var reg 1 w awvalid $end
$var reg 12 y awaddr [11:0] $end
$var reg 1 z wvalid $end
$var reg 32 | wdata [31:0] $end
$var reg 4 } wstrb [3:0] $end
$var reg 1 !! bready $end
$var reg 1 #! arvalid $end
$var reg 12 %! araddr [11:0] $end
$var reg 1 '! rready $end
$upscope $end
$scope module subordinate $end
$var reg 1 w awvalid $end
$var reg 12 y awaddr [11:0] $end
$var reg 1 z wvalid $end
$var reg 32 | wdata [31:0] $end
$var reg 4 } wstrb [3:0] $end
$var reg 1 !! bready $end
$var reg 1 #! arvalid $end
$var reg 12 %! araddr [11:0] $end
$var reg 1 '! rready $end
$var reg 1 x awready $end
$var reg 1 { wready $end
$var reg 1 ~ bvalid $end
$var reg 2 "! bresp [1:0] $end
$var reg 1 $! arready $end
$var reg 1 &! rvalid $end
$var reg 32 (! rdata [31:0] $end
$var reg 2 )! rresp [1:0] $end
$upscope $end
$scope module monitor $end
$var wire 1 T clk $end
$var wire 1 U rst_n $end
$var reg 1 w awvalid $end
$var reg 1 x awready $end
$var reg 12 y awaddr [11:0] $end
$var reg 1 z wvalid $end
$var reg 1 { wready $end
$var reg 32 | wdata [31:0] $end
$var reg 4 } wstrb [3:0] $end
$var reg 1 ~ bvalid $end
$var reg 1 !! bready $end
$var reg 2 "! bresp [1:0] $end
$var reg 1 #! arvalid $end
$var reg 1 $! arready $end
$var reg 12 %! araddr [11:0] $end
$var reg 1 &! rvalid $end
$var reg 1 '! rready $end
$var reg 32 (! rdata [31:0] $end
$var reg 2 )! rresp [1:0] $end
$upscope $end
$upscope $end
$scope module memory_bus $end
$var wire 1 T clk $end
$var wire 1 U rst_n $end
$var reg 1 -! req_valid $end
$var reg 1 .! req_ready $end
$var reg 1 /! req_write $end
$var reg 32 0! req_addr [31:0] $end
$var reg 32 1! req_wdata [31:0] $end
$var reg 4 2! req_wstrb [3:0] $end
$var reg 1 3! req_last $end
$var reg 1 4! rsp_valid $end
$var reg 1 5! rsp_ready $end
$var reg 32 6! rsp_rdata [31:0] $end
$var reg 1 7! rsp_error $end
$var parameter 0 8! ADDR_WIDTH [31:0] $end
$var parameter 0 9! DATA_WIDTH [31:0] $end
$var parameter 0 :! STRB_WIDTH [31:0] $end
$scope module initiator $end
$var reg 1 .! req_ready $end
$var reg 1 4! rsp_valid $end
$var reg 32 6! rsp_rdata [31:0] $end
$var reg 1 7! rsp_error $end
$var reg 1 -! req_valid $end
$var reg 1 /! req_write $end
$var reg 32 0! req_addr [31:0] $end
$var reg 32 1! req_wdata [31:0] $end
$var reg 4 2! req_wstrb [3:0] $end
$var reg 1 3! req_last $end
$var reg 1 5! rsp_ready $end
$upscope $end
$scope module target $end
$var reg 1 -! req_valid $end
$var reg 1 /! req_write $end
$var reg 32 0! req_addr [31:0] $end
$var reg 32 1! req_wdata [31:0] $end
$var reg 4 2! req_wstrb [3:0] $end
$var reg 1 3! req_last $end
$var reg 1 5! rsp_ready $end
$var reg 1 .! req_ready $end
$var reg 1 4! rsp_valid $end
$var reg 32 6! rsp_rdata [31:0] $end
$var reg 1 7! rsp_error $end
$upscope $end
$scope module monitor $end
$var wire 1 T clk $end
$var wire 1 U rst_n $end
$var reg 1 -! req_valid $end
$var reg 1 .! req_ready $end
$var reg 1 /! req_write $end
$var reg 32 0! req_addr [31:0] $end
$var reg 32 1! req_wdata [31:0] $end
$var reg 4 2! req_wstrb [3:0] $end
$var reg 1 3! req_last $end
$var reg 1 4! rsp_valid $end
$var reg 1 5! rsp_ready $end
$var reg 32 6! rsp_rdata [31:0] $end
$var reg 1 7! rsp_error $end
$upscope $end
$upscope $end
$scope module stream_bus $end
$var wire 1 T clk $end
$var wire 1 U rst_n $end
$var reg 1 ;! valid $end
$var reg 1 <! ready $end
$var reg 32 =! data [31:0] $end
$var reg 1 >! last $end
$var reg 1 ?! user [0:0] $end
$var parameter 0 @! DATA_WIDTH [31:0] $end
$var parameter 0 A! USER_WIDTH [31:0] $end
$scope module source $end
$var reg 1 <! ready $end
$var reg 1 ;! valid $end
$var reg 32 =! data [31:0] $end
$var reg 1 >! last $end
$var reg 1 ?! user [0:0] $end
$upscope $end
$scope module sink $end
$var reg 1 ;! valid $end
$var reg 32 =! data [31:0] $end
$var reg 1 >! last $end
$var reg 1 ?! user [0:0] $end
$var reg 1 <! ready $end
$upscope $end
$scope module monitor $end
$var wire 1 T clk $end
$var wire 1 U rst_n $end
$var reg 1 ;! valid $end
$var reg 1 <! ready $end
$var reg 32 =! data [31:0] $end
$var reg 1 >! last $end
$var reg 1 ?! user [0:0] $end
$upscope $end
$upscope $end
$scope module interrupt_bus $end
$var wire 1 T clk $end
$var wire 1 U rst_n $end
$var reg 5 B! sources [4:0] $end
$var reg 5 C! pending [4:0] $end
$var reg 5 D! enable [4:0] $end
$var reg 5 E! clear [4:0] $end
$var reg 1 F! irq $end
$var parameter 0 G! SOURCE_COUNT [31:0] $end
$scope module source $end
$var reg 5 B! sources [4:0] $end
$upscope $end
$scope module controller $end
$var reg 5 B! sources [4:0] $end
$var reg 5 E! clear [4:0] $end
$var reg 5 C! pending [4:0] $end
$var reg 5 D! enable [4:0] $end
$var reg 1 F! irq $end
$upscope $end
$scope module monitor $end
$var wire 1 T clk $end
$var wire 1 U rst_n $end
$var reg 5 B! sources [4:0] $end
$var reg 5 C! pending [4:0] $end
$var reg 5 D! enable [4:0] $end
$var reg 5 E! clear [4:0] $end
$var reg 1 F! irq $end
$upscope $end
$upscope $end
$scope module command_bus $end
$var wire 1 T clk $end
$var wire 1 U rst_n $end
$var reg 1 H! cmd_valid $end
$var reg 1 I! cmd_ready $end
$var reg 167 J! cmd $end
$var reg 1 K! cmd_full $end
$var reg 1 L! rsp_valid $end
$var reg 1 M! rsp_ready $end
$var reg 88 N! rsp $end
$var reg 1 O! rsp_empty $end
$scope module producer $end
$var reg 1 I! cmd_ready $end
$var reg 1 K! cmd_full $end
$var reg 1 L! rsp_valid $end
$var reg 88 N! rsp $end
$var reg 1 O! rsp_empty $end
$var reg 1 H! cmd_valid $end
$var reg 167 J! cmd $end
$var reg 1 M! rsp_ready $end
$upscope $end
$scope module consumer $end
$var reg 1 H! cmd_valid $end
$var reg 167 J! cmd $end
$var reg 1 M! rsp_ready $end
$var reg 1 I! cmd_ready $end
$var reg 1 K! cmd_full $end
$var reg 1 L! rsp_valid $end
$var reg 88 N! rsp $end
$var reg 1 O! rsp_empty $end
$upscope $end
$scope module monitor $end
$var wire 1 T clk $end
$var wire 1 U rst_n $end
$var reg 1 H! cmd_valid $end
$var reg 1 I! cmd_ready $end
$var reg 167 J! cmd $end
$var reg 1 K! cmd_full $end
$var reg 1 L! rsp_valid $end
$var reg 1 M! rsp_ready $end
$var reg 88 N! rsp $end
$var reg 1 O! rsp_empty $end
$upscope $end
$upscope $end
$upscope $end
$scope module u_reduction_accelerator $end
$var wire 1 T clk $end
$var wire 1 U rst_n $end
$var wire 1 V command_valid $end
$var reg 1 $ command_ready $end
$var reg 167 b command $end
$var reg 1 + response_valid $end
$var wire 1 ] response_ready $end
$var reg 88 c response $end
$var reg 1 = busy $end
$var reg 1 > done $end
$var reg 1 ? error $end
$var reg 4 @ error_code $end
$var reg 1 A active_cycle $end
$var reg 1 B stalled_cycle $end
$var reg 16 C elements_completed_event [15:0] $end
$var reg 3 P! state $end
$var reg 88 Q! response_reg $end
$var reg 4 R! active_opcode $end
$var reg 8 S! active_flags [7:0] $end
$var reg 16 T! active_command_id [15:0] $end
$var reg 16 U! active_length [15:0] $end
$var reg 32 V! source_address $end
$var reg 32 W! destination_address $end
$var reg 16 X! elements_remaining [15:0] $end
$var reg 32 Y! source_word $end
$var reg 32 Z! result_word $end
$var reg 40 [! accumulator $end
$var reg 32 \! active_cycles $end
$var reg 40 ]! word_sum $end
$var reg 16 ^! word_maximum $end
$var reg 40 _! next_accumulator $end
$var reg 16 `! reduced_element $end
$var reg 32 a! computed_result_word $end
$var reg 4 b! result_write_strobe $end
$var reg 1 c! command_fire $end
$var reg 1 d! memory_request_fire $end
$var reg 1 e! memory_response_fire $end
$var reg 1 f! request_wait_state $end
$var reg 1 g! response_wait_state $end
$var reg 1 h! signed_mode $end
$var reg 1 i! saturate_mode $end
$var reg 1 j! final_word $end
$var reg 2 k! current_word_elements $end
$var reg 4 l! command_validation_error $end
$var reg 24 m! source_storage_bytes $end
$var parameter 0 n! DATA_WIDTH [31:0] $end
$var parameter 0 o! ELEMENT_WIDTH [31:0] $end
$var parameter 0 p! ACCUM_WIDTH [31:0] $end
$var parameter 0 q! MAX_REDUCTION_LENGTH [31:0] $end
$var parameter 0 r! REDUCTION_DATA_BYTES [31:0] $end
$var parameter 0 s! ELEMENT_BYTES [31:0] $end
$var parameter 0 t! ELEMENTS_PER_WORD [31:0] $end
$var parameter 0 u! TREE_LEVELS [31:0] $end
$var parameter 0 v! ELEMENT_COUNT_WIDTH [31:0] $end
$var parameter 0 w! REQUIRED_SUM_WIDTH [31:0] $end
$var parameter 16 x! MAXIMUM_COMMAND_LENGTH [15:0] $end
$var parameter 0 y! MAXIMUM_CYCLE_COUNT $end
$scope module memory_port $end
$var wire 1 T clk $end
$var wire 1 U rst_n $end
$var reg 1 i req_valid $end
$var reg 1 j req_ready $end
$var reg 1 k req_write $end
$var reg 32 l req_addr [31:0] $end
$var reg 32 m req_wdata [31:0] $end
$var reg 4 n req_wstrb [3:0] $end
$var reg 1 o req_last $end
$var reg 1 p rsp_valid $end
$var reg 1 q rsp_ready $end
$var reg 32 r rsp_rdata [31:0] $end
$var reg 1 s rsp_error $end
$var parameter 0 t ADDR_WIDTH [31:0] $end
$var parameter 0 u DATA_WIDTH [31:0] $end
$var parameter 0 v STRB_WIDTH [31:0] $end
$scope module initiator $end
$var reg 1 j req_ready $end
$var reg 1 p rsp_valid $end
$var reg 32 r rsp_rdata [31:0] $end
$var reg 1 s rsp_error $end
$var reg 1 i req_valid $end
$var reg 1 k req_write $end
$var reg 32 l req_addr [31:0] $end
$var reg 32 m req_wdata [31:0] $end
$var reg 4 n req_wstrb [3:0] $end
$var reg 1 o req_last $end
$var reg 1 q rsp_ready $end
$upscope $end
$scope module target $end
$var reg 1 i req_valid $end
$var reg 1 k req_write $end
$var reg 32 l req_addr [31:0] $end
$var reg 32 m req_wdata [31:0] $end
$var reg 4 n req_wstrb [3:0] $end
$var reg 1 o req_last $end
$var reg 1 q rsp_ready $end
$var reg 1 j req_ready $end
$var reg 1 p rsp_valid $end
$var reg 32 r rsp_rdata [31:0] $end
$var reg 1 s rsp_error $end
$upscope $end
$scope module monitor $end
$var wire 1 T clk $end
$var wire 1 U rst_n $end
$var reg 1 i req_valid $end
$var reg 1 j req_ready $end
$var reg 1 k req_write $end
$var reg 32 l req_addr [31:0] $end
$var reg 32 m req_wdata [31:0] $end
$var reg 4 n req_wstrb [3:0] $end
$var reg 1 o req_last $end
$var reg 1 p rsp_valid $end
$var reg 1 q rsp_ready $end
$var reg 32 r rsp_rdata [31:0] $end
$var reg 1 s rsp_error $end
$upscope $end
$upscope $end
$scope begin Block176_21 $end
$var reg 32 z! byte_index [31:0] $end
$upscope $end
$scope begin Block180_22 $end
$var reg 32 {! level [31:0] $end
$scope begin Block181_23 $end
$var reg 32 |! node [31:0] $end
$upscope $end
$upscope $end
$scope begin Block191_24 $end
$var reg 32 }! lane [31:0] $end
$upscope $end
$scope begin Block202_25 $end
$var reg 32 ~! level [31:0] $end
$scope begin Block203_26 $end
$var reg 32 !" node [31:0] $end
$upscope $end
$upscope $end
$upscope $end
$upscope $end
$scope begin Block273_36 $end
$var reg 1 "" legal $end
$var reg 32 #" data [31:0] $end
$upscope $end
$upscope $end
$enddefinitions $end

#0
$dumpvars
0!
0!!
b10 !"
0"
b0 "!
x""
0#
0#!
bx #"
0$
0$!
b111 %
b0 %!
b10000000000000100000000000000 &
0&!
b10000000000000110000000000000 '
0'!
b1 (
b0 (!
b0 )
b0 )!
b101000000000 *
b1100 *!
x+
b100000 +!
0,
b100 ,!
bx -
0-!
bx .
0.!
bx /
0/!
bx 0
b0 0!
bx 1
b0 1!
02
b0 2!
13
13!
x4
04!
bx 5
05!
bx 6
b0 6!
b0xx 7
07!
x8
b100000 8!
09
b100000 9!
0:
b100 :!
b0 ;
0;!
0<
0<!
x=
b0 =!
x>
0>!
x?
0?!
bx @
b100000 @!
xA
b1 A!
xB
b0 B!
bx C
b0 C!
b1010011010011100100001101011111 D
b0 D!
b1 E
b0 E!
b11111111111111111011000111100000 F
0F!
b0 G
b101 G!
b0 H
0H!
b0 I
0I!
b0 J
b0 J!
1K
0K!
b0 L
0L!
b0 M
0M!
0N
b0 N!
0O
1O!
b0 P
bx P!
b100000000000000 Q
bx Q!
b10000000000000100000000000000 R
bx R!
b10000000000000110000000000000 S
bx S!
0T
bx T!
0U
bx U!
0V
bx V!
b111 W
bx W!
b10000000000000100000000000000 X
bx X!
b10000000000000110000000000000 Y
bx Y!
b1 Z
bx Z!
b0 [
bx [!
b101000000000 \
bx \!
0]
b0 ]!
1^
b0 ^!
0_
bx _!
b0 `
bx `!
0a
b0xxxxxxxxxxxxxxxx a!
b1110001000000000000010000000000000000000000000000000000000000000000000100000000000001100000000000000000000000000001000000000000000000000000000000000000000101000000000 b
b11 b!
bx c
0c!
b1110001000000000000010000000000000000000000000000000000000000000000000100000000000001100000000000000000000000000001000000000000000000000000000000000000000101000000000 d
0d!
b100000 e
0e!
b10000 f
xf!
b101000 g
xg!
b100000000 h
xh!
0i
xi!
1j
xj!
xk
bx k!
bx l
b0 l!
bx m
b100 m!
b0xx n
b100000 n!
xo
b10000 o!
0p
b101000 p!
0q
b100000000 q!
b0 r
b100 r!
0s
b10 s!
b100000 t
b10 t!
b100000 u
b1 u!
b100 v
b10 v!
0w
b11000 w!
0x
b1111111111111111 x!
b0 y
b11111111111111111111111111111111 y!
0z
b10 z!
0{
b10 {!
b0 |
b10 |!
b0 }
b10 }!
0~
b1 ~!
$end

#5000
1!
b10 !"
0+
b0 -
b0 .
b0 /
b0 0
b0 1
04
b0 5
b0 6
b0 7
18
0=
0>
0?
b0 @
0A
0B
b0 C
b0 P!
b0 Q!
b0 R!
b0 S!
1T
b0 T!
b0 U!
b0 V!
b0 W!
b0 X!
b0 Y!
b0 Z!
b0 [!
b0 \!
b0 _!
b0 `!
b0 a!
b11 b!
b0 c
0f!
0g!
0h!
0i!
1j!
0k
b0 k!
b0 l
b0 m
b0 n
1o
b10 z!
b10 {!
b10 |!
b10 }!
b1 ~!

#10000
0!
0T

#15000
1!
1T

#20000
0!
0T

#25000
1!
1T

#26000
b10 !"
1"
1$
1U
b11 b!
b10 z!
b10 {!
b10 |!
b10 }!
b1 ~!

#30000
0!
0T

#35000
1!
b1 G
1T

#36000
b10 !"
1#
b101 (
b101000000001 *
b10000 E
1V
b101 Z
b101000000001 \
b1110001000000000000010000000000000000000000000000000000000000000000000100000000000001100000000000000000000000000101000000000000000000000000000000000000000101000000001 b
b11 b!
1c!
b1110001000000000000010000000000000000000000000000000000000000000000000100000000000001100000000000000000000000000101000000000000000000000000000000000000000101000000001 d
b1100 m!
b10 z!
b10 {!
b10 |!
b10 }!
b1 ~!

#40000
0!
0T

#45000
1!
b10 !"
0$
12
b10000000000000100000000000000 5
08
1=
1A
b10 G
b1 P!
b111 R!
1T
b101000000001 T!
b101 U!
b10000000000000100000000000000 V!
b10000000000000110000000000000 W!
b101 X!
b11 b!
0c!
1d!
1f!
1i
0j!
b10 k!
b10000000000000100000000000000 l
0o
b10 z!
b10 {!
b10 |!
b10 }!
b1 ~!

#46000
b10 !"
0#
0V
b11 b!
b10 z!
b10 {!
b10 |!
b10 }!
b1 ~!

#50000
0!
0T

#55000
1!
b10 !"
1""
b100000000000000001 #"
02
19
1:
b100000000000000001 ;
0B
b11 G
b1 H
b10 P!
1T
b1 \!
1_
b100000000000000001 `
b11 b!
0d!
1e!
0f!
1g!
0i
1p
1q
b100000000000000001 r
b10 z!
b10 {!
b10 |!
b10 }!
b1 ~!

#60000
0!
0T

#65000
1!
b10 !"
09
0:
b100 G
b11 P!
1T
b100000000000000001 Y!
b10 \!
b11 ]!
b10 ^!
0_
b11 _!
b11 `!
b11 a!
b11 b!
0e!
0g!
0p
0q
b10 z!
b10 {!
b10 |!
b10 }!
b1 ~!

#70000
0!
0T

#75000
1!
b10 !"
12
b10000000000000100000000000100 5
b101 G
b1 P!
1T
b10000000000000100000000000100 V!
b11 X!
b11 [!
b11 \!
b110 _!
b110 `!
b110 a!
b11 b!
1d!
1f!
1i
b10000000000000100000000000100 l
b10 z!
b10 {!
b10 |!
b10 }!
b1 ~!

#80000
0!
0T

#85000
1!
b10 !"
b1000000000000000011 #"
02
19
1:
b1000000000000000011 ;
0B
b110 G
b10 H
b10 P!
1T
b100 \!
1_
b110 _!
b1000000000000000011 `
b110 a!
b11 b!
0d!
1e!
0f!
1g!
0i
1p
1q
b1000000000000000011 r
b10 z!
b10 {!
b10 |!
b10 }!
b1 ~!

#90000
0!
0T

#95000
1!
b10 !"
09
0:
b111 G
b11 P!
1T
b1000000000000000011 Y!
b101 \!
b111 ]!
b100 ^!
0_
b1010 _!
b1010 `!
b1010 a!
b11 b!
0e!
0g!
0p
0q
b10 z!
b10 {!
b10 |!
b10 }!
b1 ~!

#100000
0!
0T

#105000
1!
b10 !"
12
b10000000000000100000000001000 5
18
b1000 G
b1 P!
1T
b10000000000000100000000001000 V!
b1 X!
b1010 [!
b110 \!
b11 ]!
b11 ^!
b1101 _!
b1101 `!
b1101 a!
b11 b!
1d!
1f!
1i
1j!
b1 k!
b10000000000000100000000001000 l
1o
b10 z!
b10 {!
b10 |!
b10 }!
b1 ~!

#110000
0!
0T

#115000
1!
b10 !"
b101 #"
02
19
1:
b101 ;
0B
b1001 G
b11 H
b10 P!
1T
b111 \!
1_
b1101 _!
b101 `
b1101 a!
b11 b!
0d!
1e!
0f!
1g!
0i
1p
1q
b101 r
b10 z!
b10 {!
b10 |!
b10 }!
b1 ~!

#120000
0!
0T

#125000
1!
b10 !"
09
0:
b1010 G
b11 P!
1T
b101 Y!
b1000 \!
b101 ]!
b101 ^!
0_
b1111 _!
b1111 `!
b1111 a!
b11 b!
0e!
0g!
0p
0q
b10 z!
b10 {!
b10 |!
b10 }!
b1 ~!

#130000
0!
0T

#135000
1!
b10 !"
12
14
b10000000000000110000000000000 5
b1111 6
b11 7
b1011 G
b100 P!
1T
b1111 Z!
b1111 [!
b1001 \!
b10100 _!
b10100 `!
b10100 a!
b11 b!
1d!
1f!
1i
1k
b10000000000000110000000000000 l
b1111 m
b11 n
b10 z!
b10 {!
b10 |!
b10 }!
b1 ~!

#140000
0!
0T

#145000
1!
b10 !"
02
04
b10000000000000100000000001000 5
b0 7
19
1:
b0 ;
0B
b1100 G
b1 I
b11 P
b101 P!
1T
b1010 \!
1_
b10100 _!
b0 `
b10100 a!
b11 b!
0d!
1e!
0f!
1g!
0i
0k
b10000000000000100000000001000 l
b0 n
1p
1q
b0 r
b10 z!
b10 {!
b10 |!
b10 }!
b1 ~!

#150000
0!
0T

#155000
1!
b10 !"
1+
b101000000001 -
b111 .
b1111 0
b1011 1
09
0:
1>
0A
1B
b101 C
b1101 G
b110 P!
b101000000001011100000000000000000000000000000000111100000000000000000000000000001011 Q!
1T
b1011 \!
0_
b10100 _!
b10100 a!
b11 b!
b101000000001011100000000000000000000000000000000111100000000000000000000000000001011 c
0e!
0g!
0p
0q
b10 z!
b10 {!
b10 |!
b10 }!
b1 ~!

#156000
b10 !"
1,
0B
1]
b10100 _!
b10100 a!
b11 b!
b10 z!
b10 {!
b10 |!
b10 }!
b1 ~!

#160000
0!
0T

#165000
1!
b10 !"
1$
0+
0=
0>
b0 C
b1110 G
b0 P!
1T
b10100 _!
b10100 a!
b11 b!
b10 z!
b10 {!
b10 |!
b10 }!
b1 ~!

#166000
b10 !"
0"
0$
b1 (
b101000000000 *
0,
b100000 E
b0 G
b0 H
b0 I
b0 P
0U
b1 Z
b101000000000 \
0]
b10100 _!
b10100 a!
b1110001000000000000010000000000000000000000000000000000000000000000000100000000000001100000000000000000000000000001000000000000000000000000000000000000000101000000000 b
b11 b!
b1110001000000000000010000000000000000000000000000000000000000000000000100000000000001100000000000000000000000000001000000000000000000000000000000000000000101000000000 d
b100 m!
b10 z!
b10 {!
b10 |!
b10 }!
b1 ~!

#170000
0!
0T

#175000
1!
b10 !"
b0 -
b0 .
b0 0
b0 1
b0 5
b0 6
b0 Q!
b0 R!
1T
b0 T!
b0 U!
b0 V!
b0 W!
b0 X!
b0 Y!
b0 Z!
b0 [!
b0 \!
b0 ]!
b0 ^!
b0 _!
b0 `!
b0 a!
b11 b!
b0 c
b0 k!
b0 l
b0 m
b10 z!
b10 {!
b10 |!
b10 }!
b1 ~!

#180000
0!
0T

#185000
1!
1T

#190000
0!
0T

#195000
1!
1T

#196000
b10 !"
1"
1$
1U
b11 b!
b10 z!
b10 {!
b10 |!
b10 }!
b1 ~!

#200000
0!
0T

#205000
1!
b1 G
1T

#206000
b10 !"
1#
b1000 %
b100 (
b101000000010 *
1V
b1000 W
b100 Z
b101000000010 \
b10000001000000000000010000000000000000000000000000000000000000000000000100000000000001100000000000000000000000000100000000000000000000000000000000000000000101000000010 b
b11 b!
1c!
b10000001000000000000010000000000000000000000000000000000000000000000000100000000000001100000000000000000000000000100000000000000000000000000000000000000000101000000010 d
b1000 m!
b10 z!
b10 {!
b10 |!
b10 }!
b1 ~!

#210000
0!
0T

#215000
1!
b10 !"
0$
12
b10000000000000100000000000000 5
08
1=
1A
b10 G
b1 P!
b1000 R!
1T
b101000000010 T!
b100 U!
b10000000000000100000000000000 V!
b10000000000000110000000000000 W!
b100 X!
b11 b!
0c!
1d!
1f!
1i
0j!
b10 k!
b10000000000000100000000000000 l
0o
b10 z!
b10 {!
b10 |!
b10 }!
b1 ~!

#216000
b10 !"
0#
0V
b11 b!
b10 z!
b10 {!
b10 |!
b10 }!
b1 ~!

#220000
0!
0T

#225000
1!
b10 !"
b11111111111111110000000000000001 #"
02
19
1:
b11111111111111110000000000000001 ;
0B
b11 G
b1 H
b10 P!
1T
b1 \!
1_
b11111111111111110000000000000001 `
b11 b!
0d!
1e!
0f!
1g!
0i
1p
1q
b11111111111111110000000000000001 r
b10 z!
b10 {!
b10 |!
b10 }!
b1 ~!

#230000
0!
0T

