Images/vcd/vector.vcd
$date
   Mon Jun 29 18:40:28 2026
$end

$version
  2024.2.0
$end

$timescale
  1ps
$end

$scope module artifact_vector_tb $end
$var reg 1 ! clk $end
$var reg 1 " rst_n $end
$var reg 1 # command_valid $end
$var reg 1 $ command_ready $end
$var reg 4 % command_opcode [3:0] $end
$var reg 32 & command_src0_addr [31:0] $end
$var reg 32 ' command_src1_addr [31:0] $end
$var reg 32 ( command_dst_addr [31:0] $end
$var reg 16 ) command_length [15:0] $end
$var reg 8 * command_flags [7:0] $end
$var reg 3 + command_priority [2:0] $end
$var reg 16 , command_id [15:0] $end
$var reg 1 - response_valid $end
$var reg 1 . response_ready $end
$var reg 16 / response_command_id [15:0] $end
$var reg 4 0 response_opcode [3:0] $end
$var reg 4 1 response_error [3:0] $end
$var reg 32 2 response_result [31:0] $end
$var reg 32 3 response_cycles [31:0] $end
$var reg 1 4 memory_req_valid $end
$var reg 1 5 memory_req_ready $end
$var reg 1 6 memory_req_write $end
$var reg 32 7 memory_req_addr [31:0] $end
$var reg 32 8 memory_req_wdata [31:0] $end
$var reg 4 9 memory_req_wstrb [3:0] $end
$var reg 1 : memory_req_last $end
$var reg 1 ; memory_rsp_valid $end
$var reg 1 < memory_rsp_ready $end
$var reg 32 = memory_rsp_rdata [31:0] $end
$var reg 1 > memory_rsp_error $end
$var reg 1 ? busy $end
$var reg 1 @ done $end
$var reg 1 A error $end
$var reg 4 B error_code [3:0] $end
$var reg 1 C active_cycle $end
$var reg 1 D stalled_cycle $end
$var reg 16 E elements_completed_event [15:0] $end
$var reg 32 F definition_checksum [31:0] $end
$var reg 8 G phase [7:0] $end
$var integer 32 H trace_fd [31:0] $end
$var integer 32 I cycle_count [31:0] $end
$var integer 32 J read_count [31:0] $end
$var integer 32 K write_count [31:0] $end
$var integer 32 L stall_count [31:0] $end
$var reg 1 M ready_enable $end
$var integer 32 N ready_modulus [31:0] $end
$var integer 32 O ready_block_residue [31:0] $end
$var reg 1 P fail_next_request $end
$var reg 4 Q last_write_strobe [3:0] $end
$var reg 32 R last_write_data [31:0] $end
$var parameter 0 S SPM_WORDS [31:0] $end
$var parameter 32 T SRC0_BASE [31:0] $end
$var parameter 32 U SRC1_BASE [31:0] $end
$var parameter 32 V DST_BASE [31:0] $end
$var parameter 32 W SCALAR_ADDR [31:0] $end
$scope module dut $end
$var wire 1 X clk $end
$var wire 1 Y rst_n $end
$var wire 1 Z command_valid $end
$var reg 1 $ command_ready $end
$var wire 4 [ command_opcode [3:0] $end
$var wire 32 \ command_src0_addr [31:0] $end
$var wire 32 ] command_src1_addr [31:0] $end
$var wire 32 ^ command_dst_addr [31:0] $end
$var wire 16 _ command_length [15:0] $end
$var wire 8 ` command_flags [7:0] $end
$var wire 3 a command_priority [2:0] $end
$var wire 16 b command_id [15:0] $end
$var reg 1 - response_valid $end
$var wire 1 c response_ready $end
$var reg 16 / response_command_id [15:0] $end
$var reg 4 0 response_opcode [3:0] $end
$var reg 4 1 response_error [3:0] $end
$var reg 32 2 response_result [31:0] $end
$var reg 32 3 response_cycles [31:0] $end
$var reg 1 4 memory_req_valid $end
$var wire 1 d memory_req_ready $end
$var reg 1 6 memory_req_write $end
$var reg 32 7 memory_req_addr [31:0] $end
$var reg 32 8 memory_req_wdata [31:0] $end
$var reg 4 9 memory_req_wstrb [3:0] $end
$var reg 1 : memory_req_last $end
$var wire 1 e memory_rsp_valid $end
$var reg 1 < memory_rsp_ready $end
$var wire 32 f memory_rsp_rdata [31:0] $end
$var wire 1 g memory_rsp_error $end
$var reg 1 ? busy $end
$var reg 1 @ done $end
$var reg 1 A error $end
$var reg 4 B error_code [3:0] $end
$var reg 1 C active_cycle $end
$var reg 1 D stalled_cycle $end
$var reg 16 E elements_completed_event [15:0] $end
$var reg 32 F definition_checksum [31:0] $end
$var reg 167 h command $end
$var reg 88 i response_payload $end
$var reg 167 j xilinx_isim_temp_25_ln50_blkAssignCaching $end
$var parameter 0 k DATA_WIDTH [31:0] $end
$var parameter 0 l ELEMENT_WIDTH [31:0] $end
$var parameter 0 m MAX_VECTOR_LENGTH [31:0] $end
$scope module memory_bus $end
$var wire 1 X clk $end
$var wire 1 Y rst_n $end
$var reg 1 n req_valid $end
$var reg 1 o req_ready $end
$var reg 1 p req_write $end
$var reg 32 q req_addr [31:0] $end
$var reg 32 r req_wdata [31:0] $end
$var reg 4 s req_wstrb [3:0] $end
$var reg 1 t req_last $end
$var reg 1 u rsp_valid $end
$var reg 1 v rsp_ready $end
$var reg 32 w rsp_rdata [31:0] $end
$var reg 1 x rsp_error $end
$var parameter 0 y ADDR_WIDTH [31:0] $end
$var parameter 0 z DATA_WIDTH [31:0] $end
$var parameter 0 { STRB_WIDTH [31:0] $end
$scope module initiator $end
$var reg 1 o req_ready $end
$var reg 1 u rsp_valid $end
$var reg 32 w rsp_rdata [31:0] $end
$var reg 1 x rsp_error $end
$var reg 1 n req_valid $end
$var reg 1 p req_write $end
$var reg 32 q req_addr [31:0] $end
$var reg 32 r req_wdata [31:0] $end
$var reg 4 s req_wstrb [3:0] $end
$var reg 1 t req_last $end
$var reg 1 v rsp_ready $end
$upscope $end
$scope module target $end
$var reg 1 n req_valid $end
$var reg 1 p req_write $end
$var reg 32 q req_addr [31:0] $end
$var reg 32 r req_wdata [31:0] $end
$var reg 4 s req_wstrb [3:0] $end
$var reg 1 t req_last $end
$var reg 1 v rsp_ready $end
$var reg 1 o req_ready $end
$var reg 1 u rsp_valid $end
$var reg 32 w rsp_rdata [31:0] $end
$var reg 1 x rsp_error $end
$upscope $end
$scope module monitor $end
$var wire 1 X clk $end
$var wire 1 Y rst_n $end
$var reg 1 n req_valid $end
$var reg 1 o req_ready $end
$var reg 1 p req_write $end
$var reg 32 q req_addr [31:0] $end
$var reg 32 r req_wdata [31:0] $end
$var reg 4 s req_wstrb [3:0] $end
$var reg 1 t req_last $end
$var reg 1 u rsp_valid $end
$var reg 1 v rsp_ready $end
$var reg 32 w rsp_rdata [31:0] $end
$var reg 1 x rsp_error $end
$upscope $end
$upscope $end
$scope module u_protocol_compile $end
$var wire 1 X clk $end
$var wire 1 Y rst_n $end
$var reg 32 F definition_checksum [31:0] $end
$scope module axil_bus $end
$var wire 1 X clk $end
$var wire 1 Y rst_n $end
$var reg 1 | awvalid $end
$var reg 1 } awready $end
$var reg 12 ~ awaddr [11:0] $end
$var reg 1 !! wvalid $end
$var reg 1 "! wready $end
$var reg 32 #! wdata [31:0] $end
$var reg 4 $! wstrb [3:0] $end
$var reg 1 %! bvalid $end
$var reg 1 &! bready $end
$var reg 2 '! bresp [1:0] $end
$var reg 1 (! arvalid $end
$var reg 1 )! arready $end
$var reg 12 *! araddr [11:0] $end
$var reg 1 +! rvalid $end
$var reg 1 ,! rready $end
$var reg 32 -! rdata [31:0] $end
$var reg 2 .! rresp [1:0] $end
$var parameter 0 /! ADDR_WIDTH [31:0] $end
$var parameter 0 0! DATA_WIDTH [31:0] $end
$var parameter 0 1! STRB_WIDTH [31:0] $end
$scope module manager $end
$var reg 1 } awready $end
$var reg 1 "! wready $end
$var reg 1 %! bvalid $end
$var reg 2 '! bresp [1:0] $end
$var reg 1 )! arready $end
$var reg 1 +! rvalid $end
$var reg 32 -! rdata [31:0] $end
$var reg 2 .! rresp [1:0] $end
$var reg 1 | awvalid $end
$var reg 12 ~ awaddr [11:0] $end
$var reg 1 !! wvalid $end
$var reg 32 #! wdata [31:0] $end
$var reg 4 $! wstrb [3:0] $end
$var reg 1 &! bready $end
$var reg 1 (! arvalid $end
$var reg 12 *! araddr [11:0] $end
$var reg 1 ,! rready $end
$upscope $end
$scope module subordinate $end
$var reg 1 | awvalid $end
$var reg 12 ~ awaddr [11:0] $end
$var reg 1 !! wvalid $end
$var reg 32 #! wdata [31:0] $end
$var reg 4 $! wstrb [3:0] $end
$var reg 1 &! bready $end
$var reg 1 (! arvalid $end
$var reg 12 *! araddr [11:0] $end
$var reg 1 ,! rready $end
$var reg 1 } awready $end
$var reg 1 "! wready $end
$var reg 1 %! bvalid $end
$var reg 2 '! bresp [1:0] $end
$var reg 1 )! arready $end
$var reg 1 +! rvalid $end
$var reg 32 -! rdata [31:0] $end
$var reg 2 .! rresp [1:0] $end
$upscope $end
$scope module monitor $end
$var wire 1 X clk $end
$var wire 1 Y rst_n $end
$var reg 1 | awvalid $end
$var reg 1 } awready $end
$var reg 12 ~ awaddr [11:0] $end
$var reg 1 !! wvalid $end
$var reg 1 "! wready $end
$var reg 32 #! wdata [31:0] $end
$var reg 4 $! wstrb [3:0] $end
$var reg 1 %! bvalid $end
$var reg 1 &! bready $end
$var reg 2 '! bresp [1:0] $end
$var reg 1 (! arvalid $end
$var reg 1 )! arready $end
$var reg 12 *! araddr [11:0] $end
$var reg 1 +! rvalid $end
$var reg 1 ,! rready $end
$var reg 32 -! rdata [31:0] $end
$var reg 2 .! rresp [1:0] $end
$upscope $end
$upscope $end
$scope module memory_bus $end
$var wire 1 X clk $end
$var wire 1 Y rst_n $end
$var reg 1 2! req_valid $end
$var reg 1 3! req_ready $end
$var reg 1 4! req_write $end
$var reg 32 5! req_addr [31:0] $end
$var reg 32 6! req_wdata [31:0] $end
$var reg 4 7! req_wstrb [3:0] $end
$var reg 1 8! req_last $end
$var reg 1 9! rsp_valid $end
$var reg 1 :! rsp_ready $end
$var reg 32 ;! rsp_rdata [31:0] $end
$var reg 1 <! rsp_error $end
$var parameter 0 =! ADDR_WIDTH [31:0] $end
$var parameter 0 >! DATA_WIDTH [31:0] $end
$var parameter 0 ?! STRB_WIDTH [31:0] $end
$scope module initiator $end
$var reg 1 3! req_ready $end
$var reg 1 9! rsp_valid $end
$var reg 32 ;! rsp_rdata [31:0] $end
$var reg 1 <! rsp_error $end
$var reg 1 2! req_valid $end
$var reg 1 4! req_write $end
$var reg 32 5! req_addr [31:0] $end
$var reg 32 6! req_wdata [31:0] $end
$var reg 4 7! req_wstrb [3:0] $end
$var reg 1 8! req_last $end
$var reg 1 :! rsp_ready $end
$upscope $end
$scope module target $end
$var reg 1 2! req_valid $end
$var reg 1 4! req_write $end
$var reg 32 5! req_addr [31:0] $end
$var reg 32 6! req_wdata [31:0] $end
$var reg 4 7! req_wstrb [3:0] $end
$var reg 1 8! req_last $end
$var reg 1 :! rsp_ready $end
$var reg 1 3! req_ready $end
$var reg 1 9! rsp_valid $end
$var reg 32 ;! rsp_rdata [31:0] $end
$var reg 1 <! rsp_error $end
$upscope $end
$scope module monitor $end
$var wire 1 X clk $end
$var wire 1 Y rst_n $end
$var reg 1 2! req_valid $end
$var reg 1 3! req_ready $end
$var reg 1 4! req_write $end
$var reg 32 5! req_addr [31:0] $end
$var reg 32 6! req_wdata [31:0] $end
$var reg 4 7! req_wstrb [3:0] $end
$var reg 1 8! req_last $end
$var reg 1 9! rsp_valid $end
$var reg 1 :! rsp_ready $end
$var reg 32 ;! rsp_rdata [31:0] $end
$var reg 1 <! rsp_error $end
$upscope $end
$upscope $end
$scope module stream_bus $end
$var wire 1 X clk $end
$var wire 1 Y rst_n $end
$var reg 1 @! valid $end
$var reg 1 A! ready $end
$var reg 32 B! data [31:0] $end
$var reg 1 C! last $end
$var reg 1 D! user [0:0] $end
$var parameter 0 E! DATA_WIDTH [31:0] $end
$var parameter 0 F! USER_WIDTH [31:0] $end
$scope module source $end
$var reg 1 A! ready $end
$var reg 1 @! valid $end
$var reg 32 B! data [31:0] $end
$var reg 1 C! last $end
$var reg 1 D! user [0:0] $end
$upscope $end
$scope module sink $end
$var reg 1 @! valid $end
$var reg 32 B! data [31:0] $end
$var reg 1 C! last $end
$var reg 1 D! user [0:0] $end
$var reg 1 A! ready $end
$upscope $end
$scope module monitor $end
$var wire 1 X clk $end
$var wire 1 Y rst_n $end
$var reg 1 @! valid $end
$var reg 1 A! ready $end
$var reg 32 B! data [31:0] $end
$var reg 1 C! last $end
$var reg 1 D! user [0:0] $end
$upscope $end
$upscope $end
$scope module interrupt_bus $end
$var wire 1 X clk $end
$var wire 1 Y rst_n $end
$var reg 5 G! sources [4:0] $end
$var reg 5 H! pending [4:0] $end
$var reg 5 I! enable [4:0] $end
$var reg 5 J! clear [4:0] $end
$var reg 1 K! irq $end
$var parameter 0 L! SOURCE_COUNT [31:0] $end
$scope module source $end
$var reg 5 G! sources [4:0] $end
$upscope $end
$scope module controller $end
$var reg 5 G! sources [4:0] $end
$var reg 5 J! clear [4:0] $end
$var reg 5 H! pending [4:0] $end
$var reg 5 I! enable [4:0] $end
$var reg 1 K! irq $end
$upscope $end
$scope module monitor $end
$var wire 1 X clk $end
$var wire 1 Y rst_n $end
$var reg 5 G! sources [4:0] $end
$var reg 5 H! pending [4:0] $end
$var reg 5 I! enable [4:0] $end
$var reg 5 J! clear [4:0] $end
$var reg 1 K! irq $end
$upscope $end
$upscope $end
$scope module command_bus $end
$var wire 1 X clk $end
$var wire 1 Y rst_n $end
$var reg 1 M! cmd_valid $end
$var reg 1 N! cmd_ready $end
$var reg 167 O! cmd $end
$var reg 1 P! cmd_full $end
$var reg 1 Q! rsp_valid $end
$var reg 1 R! rsp_ready $end
$var reg 88 S! rsp $end
$var reg 1 T! rsp_empty $end
$scope module producer $end
$var reg 1 N! cmd_ready $end
$var reg 1 P! cmd_full $end
$var reg 1 Q! rsp_valid $end
$var reg 88 S! rsp $end
$var reg 1 T! rsp_empty $end
$var reg 1 M! cmd_valid $end
$var reg 167 O! cmd $end
$var reg 1 R! rsp_ready $end
$upscope $end
$scope module consumer $end
$var reg 1 M! cmd_valid $end
$var reg 167 O! cmd $end
$var reg 1 R! rsp_ready $end
$var reg 1 N! cmd_ready $end
$var reg 1 P! cmd_full $end
$var reg 1 Q! rsp_valid $end
$var reg 88 S! rsp $end
$var reg 1 T! rsp_empty $end
$upscope $end
$scope module monitor $end
$var wire 1 X clk $end
$var wire 1 Y rst_n $end
$var reg 1 M! cmd_valid $end
$var reg 1 N! cmd_ready $end
$var reg 167 O! cmd $end
$var reg 1 P! cmd_full $end
$var reg 1 Q! rsp_valid $end
$var reg 1 R! rsp_ready $end
$var reg 88 S! rsp $end
$var reg 1 T! rsp_empty $end
$upscope $end
$upscope $end
$upscope $end
$scope module u_vector_accelerator $end
$var wire 1 X clk $end
$var wire 1 Y rst_n $end
$var wire 1 Z command_valid $end
$var reg 1 $ command_ready $end
$var reg 167 h command $end
$var reg 1 - response_valid $end
$var wire 1 c response_ready $end
$var reg 88 i response $end
$var reg 1 ? busy $end
$var reg 1 @ done $end
$var reg 1 A error $end
$var reg 4 B error_code $end
$var reg 1 C active_cycle $end
$var reg 1 D stalled_cycle $end
$var reg 16 E elements_completed_event [15:0] $end
$var reg 4 U! state $end
$var reg 88 V! response_reg $end
$var reg 4 W! active_opcode $end
$var reg 8 X! active_flags [7:0] $end
$var reg 16 Y! active_command_id [15:0] $end
$var reg 16 Z! active_length [15:0] $end
$var reg 32 [! source0_address $end
$var reg 32 \! source1_address $end
$var reg 32 ]! destination_address $end
$var reg 16 ^! elements_remaining [15:0] $end
$var reg 32 _! source0_word $end
$var reg 32 `! source1_word $end
$var reg 16 a! scalar_element $end
$var reg 32 b! result_word $end
$var reg 32 c! active_cycles $end
$var reg 1 d! command_fire $end
$var reg 1 e! memory_request_fire $end
$var reg 1 f! memory_response_fire $end
$var reg 1 g! request_wait_state $end
$var reg 1 h! response_wait_state $end
$var reg 1 i! final_word $end
$var reg 1 j! operation_uses_source1 $end
$var reg 1 k! operation_uses_scalar $end
$var reg 1 l! signed_mode $end
$var reg 1 m! saturate_mode $end
$var reg 2 n! current_word_elements $end
$var reg 4 o! current_write_strobe $end
$var reg 32 p! computed_word $end
$var reg 4 q! command_validation_error $end
$var reg 24 r! vector_storage_bytes [23:0] $end
$var parameter 0 s! DATA_WIDTH [31:0] $end
$var parameter 0 t! ELEMENT_WIDTH [31:0] $end
$var parameter 0 u! MAX_VECTOR_LENGTH [31:0] $end
$var parameter 0 v! VECTOR_DATA_BYTES [31:0] $end
$var parameter 0 w! ELEMENT_BYTES [31:0] $end
$var parameter 0 x! ELEMENTS_PER_WORD [31:0] $end
$var parameter 0 y! CALC_WIDTH [31:0] $end
$var parameter 0 z! ELEMENT_COUNT_WIDTH [31:0] $end
$var parameter 16 {! MAXIMUM_COMMAND_LENGTH [15:0] $end
$var parameter 0 |! MAXIMUM_CYCLE_COUNT $end
$scope module memory_port $end
$var wire 1 X clk $end
$var wire 1 Y rst_n $end
$var reg 1 n req_valid $end
$var reg 1 o req_ready $end
$var reg 1 p req_write $end
$var reg 32 q req_addr [31:0] $end
$var reg 32 r req_wdata [31:0] $end
$var reg 4 s req_wstrb [3:0] $end
$var reg 1 t req_last $end
$var reg 1 u rsp_valid $end
$var reg 1 v rsp_ready $end
$var reg 32 w rsp_rdata [31:0] $end
$var reg 1 x rsp_error $end
$var parameter 0 y ADDR_WIDTH [31:0] $end
$var parameter 0 z DATA_WIDTH [31:0] $end
$var parameter 0 { STRB_WIDTH [31:0] $end
$scope module initiator $end
$var reg 1 o req_ready $end
$var reg 1 u rsp_valid $end
$var reg 32 w rsp_rdata [31:0] $end
$var reg 1 x rsp_error $end
$var reg 1 n req_valid $end
$var reg 1 p req_write $end
$var reg 32 q req_addr [31:0] $end
$var reg 32 r req_wdata [31:0] $end
$var reg 4 s req_wstrb [3:0] $end
$var reg 1 t req_last $end
$var reg 1 v rsp_ready $end
$upscope $end
$scope module target $end
$var reg 1 n req_valid $end
$var reg 1 p req_write $end
$var reg 32 q req_addr [31:0] $end
$var reg 32 r req_wdata [31:0] $end
$var reg 4 s req_wstrb [3:0] $end
$var reg 1 t req_last $end
$var reg 1 v rsp_ready $end
$var reg 1 o req_ready $end
$var reg 1 u rsp_valid $end
$var reg 32 w rsp_rdata [31:0] $end
$var reg 1 x rsp_error $end
$upscope $end
$scope module monitor $end
$var wire 1 X clk $end
$var wire 1 Y rst_n $end
$var reg 1 n req_valid $end
$var reg 1 o req_ready $end
$var reg 1 p req_write $end
$var reg 32 q req_addr [31:0] $end
$var reg 32 r req_wdata [31:0] $end
$var reg 4 s req_wstrb [3:0] $end
$var reg 1 t req_last $end
$var reg 1 u rsp_valid $end
$var reg 1 v rsp_ready $end
$var reg 32 w rsp_rdata [31:0] $end
$var reg 1 x rsp_error $end
$upscope $end
$upscope $end
$scope begin Block233_21 $end
$var reg 32 }! lane [31:0] $end
$upscope $end
$upscope $end
$upscope $end
$scope begin Block281_31 $end
$var reg 1 ~! legal $end
$var reg 32 !" data [31:0] $end
$upscope $end
$upscope $end
$enddefinitions $end

#0
$dumpvars
0!
0!!
bx !"
0"
0"!
0#
b0 #!
0$
b0 $!
b10 %
0%!
b10000000000000000000100000000 &
0&!
b10000000000000001000100000000 '
b0 '!
b10000000000000010000100000000 (
0(!
b1 )
0)!
b0 *
b0 *!
b0 +
0+!
b100000000000 ,
0,!
x-
b0 -!
0.
b0 .!
bx /
b1100 /!
bx 0
b100000 0!
bx 1
b100 1!
bx 2
02!
bx 3
03!
04
04!
15
b0 5!
x6
b0 6!
bx 7
b0 7!
bx 8
18!
b0 9
09!
x:
0:!
0;
b0 ;!
0<
0<!
b0 =
b100000 =!
0>
b100000 >!
x?
b100 ?!
x@
0@!
xA
0A!
bx B
b0 B!
xC
0C!
xD
0D!
bx E
b100000 E!
b1010011010011100100001101011111 F
b1 F!
b1 G
b0 G!
b11111111111111111011000111100000 H
b0 H!
b0 I
b0 I!
b0 J
b0 J!
b0 K
0K!
b0 L
b101 L!
1M
0M!
b0 N
0N!
b0 O
b0 O!
0P
0P!
b0 Q
0Q!
b0 R
0R!
b100000000000000 S
b0 S!
b10000000000000000000100000000 T
1T!
b10000000000000001000100000000 U
bx U!
b10000000000000010000100000000 V
bx V!
b10000000000000011000100000000 W
bx W!
0X
bx X!
0Y
bx Y!
0Z
bx Z!
b10 [
bx [!
b10000000000000000000100000000 \
bx \!
b10000000000000001000100000000 ]
bx ]!
b10000000000000010000100000000 ^
bx ^!
b1 _
bx _!
b0 `
bx `!
b0 a
bx a!
b100000000000 b
bx b!
0c
bx c!
1d
0d!
0e
0e!
b0 f
0f!
0g
xg!
b100001000000000000000000010000000000010000000000000001000100000000000100000000000000100001000000000000000000000001000000000000000000000000000000000000000100000000000 h
xh!
bx i
xi!
b100001000000000000000000010000000000010000000000000001000100000000000100000000000000100001000000000000000000000001000000000000000000000000000000000000000100000000000 j
xj!
b100000 k
xk!
b10000 l
xl!
b100000000 m
xm!
0n
bx n!
1o
b0 o!
xp
b0 p!
bx q
b0 q!
bx r
b100 r!
b0 s
b100000 s!
xt
b10000 t!
0u
b100000000 u!
0v
b100 v!
b0 w
b10 w!
0x
b10 x!
b100000 y
b100001 y!
b100000 z
b10 z!
b100 {
b1111111111111111 {!
0|
b11111111111111111111111111111111 |!
0}
b10 }!
b0 ~
x~!
$end

#5000
1!
0-
b0 /
b0 0
b0 1
b0 2
b0 3
06
b0 7
b0 8
1:
0?
0@
0A
b0 B
0C
0D
b0 E
b0 U!
b0 V!
b0 W!
1X
b0 X!
b0 Y!
b0 Z!
b0 [!
b0 \!
b0 ]!
b0 ^!
b0 _!
b0 `!
b0 a!
b0 b!
b0 c!
0g!
0h!
b0 i
1i!
0j!
0k!
0l!
0m!
b0 n!
0p
b0 q
b0 r
1t
b10 }!

#10000
0!
0X

#15000
1!
1X

#20000
0!
0X

#25000
1!
1X

#26000
1"
1$
1Y
b10 }!

#30000
0!
0X

#35000
1!
b1 I
1X

#36000
1#
b11 )
b100000000001 ,
b10000 G
1Z
b11 _
b100000000001 b
1d!
b100001000000000000000000010000000000010000000000000001000100000000000100000000000000100001000000000000000000000011000000000000000000000000000000000000000100000000001 h
b100001000000000000000000010000000000010000000000000001000100000000000100000000000000100001000000000000000000000011000000000000000000000000000000000000000100000000001 j
b1000 r!
b10 }!

#40000
0!
0X

#45000
1!
0$
14
b10000000000000000000100000000 7
0:
1?
1C
b10 I
b11 U!
b10 W!
1X
b100000000001 Y!
b11 Z!
b10000000000000000000100000000 [!
b10000000000000001000100000000 \!
b10000000000000010000100000000 ]!
b11 ^!
0d!
1e!
1g!
0i!
1j!
1n
b10 n!
b1111 o!
b10000000000000000000100000000 q
0t
b10 }!

#46000
0#
0Z
b10 }!

#50000
0!
0X

#55000
1!
b100000000000000001 !"
04
1;
1<
b100000000000000001 =
0D
b11 I
b1 J
b100 U!
1X
b1 c!
1e
0e!
b100000000000000001 f
1f!
0g!
1h!
0n
1u
1v
b100000000000000001 w
b10 }!
1~!

#60000
0!
0X

#65000
1!
14
b10000000000000001000100000000 7
0;
0<
b100 I
b101 U!
1X
b100000000000000001 _!
b10 c!
0e
1e!
0f!
1g!
0h!
1n
b100000000000000001 p!
b10000000000000001000100000000 q
0u
0v
b10 }!

#70000
0!
0X

#75000
1!
b1000000000000000011 !"
04
b10000000000000000000100000000 7
1;
1<
b1000000000000000011 =
0D
b101 I
b10 J
b110 U!
1X
b11 c!
1e
0e!
b1000000000000000011 f
1f!
0g!
1h!
0n
b100000000000000001 p!
b10000000000000000000100000000 q
1u
1v
b1000000000000000011 w
b10 }!

#80000
0!
0X

#85000
1!
0;
0<
b110 I
b111 U!
1X
b1000000000000000011 `!
b100 c!
0e
0f!
0h!
b1100000000000000100 p!
0u
0v
b10 }!

#90000
0!
0X

#95000
1!
14
16
b10000000000000010000100000000 7
b1100000000000000100 8
b1111 9
b111 I
b1000 U!
1X
b1100000000000000100 b!
b101 c!
1e!
1g!
1n
1p
b1100000000000000100 p!
b10000000000000010000100000000 q
b1100000000000000100 r
b1111 s
b10 }!

#100000
0!
0X

#105000
1!
04
06
b10000000000000000000100000000 7
b0 9
1;
1<
b0 =
0D
b1000 I
b1 K
b1111 Q
b1100000000000000100 R
b1001 U!
1X
b110 c!
1e
0e!
b0 f
1f!
0g!
1h!
0n
0p
b1100000000000000100 p!
b10000000000000000000100000000 q
b0 s
1u
1v
b0 w
b10 }!

#110000
0!
0X

#115000
1!
14
b10000000000000000000100000100 7
1:
0;
0<
b10 E
b1001 I
b11 U!
1X
b10000000000000000000100000100 [!
b10000000000000001000100000100 \!
b10000000000000010000100000100 ]!
b1 ^!
b111 c!
0e
1e!
0f!
1g!
0h!
1i!
1n
b1 n!
b11 o!
b100 p!
b10000000000000000000100000100 q
1t
0u
0v
b10 }!

#120000
0!
0X

#125000
1!
b1111111111111111 !"
04
1;
1<
b1111111111111111 =
0D
b0 E
b1010 I
b11 J
b100 U!
1X
b1000 c!
1e
0e!
b1111111111111111 f
1f!
0g!
1h!
0n
b100 p!
1u
1v
b1111111111111111 w
b10 }!

#130000
0!
0X

#135000
1!
14
b10000000000000001000100000100 7
0;
0<
b1011 I
b101 U!
1X
b1111111111111111 _!
b1001 c!
0e
1e!
0f!
1g!
0h!
1n
b10 p!
b10000000000000001000100000100 q
0u
0v
b10 }!

#140000
0!
0X

#145000
1!
b10 !"
04
b10000000000000000000100000100 7
1;
1<
b10 =
0D
b1100 I
b100 J
b110 U!
1X
b1010 c!
1e
0e!
b10 f
1f!
0g!
1h!
0n
b10 p!
b10000000000000000000100000100 q
1u
1v
b10 w
b10 }!

#150000
0!
0X

#155000
1!
0;
0<
b1101 I
b111 U!
1X
b10 `!
b1011 c!
0e
0f!
0h!
b1 p!
0u
0v
b10 }!

#160000
0!
0X

#165000
1!
14
16
b10000000000000010000100000100 7
b1 8
b11 9
b1110 I
b1000 U!
1X
b1 b!
b1100 c!
1e!
1g!
1n
1p
b1 p!
b10000000000000010000100000100 q
b1 r
b11 s
b10 }!

#170000
0!
0X

#175000
1!
04
06
b10000000000000000000100000100 7
b0 9
1;
1<
b0 =
0D
b1111 I
b10 K
b11 Q
b1 R
b1001 U!
1X
b1101 c!
1e
0e!
b0 f
1f!
0g!
1h!
0n
0p
b1 p!
b10000000000000000000100000100 q
b0 s
1u
1v
b0 w
b10 }!

#180000
0!
0X

#185000
1!
1-
b100000000001 /
b10 0
b11 2
b1110 3
0;
0<
1@
0C
1D
b1 E
b10000 I
b1010 U!
b100000000001001000000000000000000000000000000000001100000000000000000000000000001110 V!
1X
b1110 c!
0e
0f!
0h!
b100000000001001000000000000000000000000000000000001100000000000000000000000000001110 i
b1 p!
0u
0v
b10 }!

#186000
1.
0D
1c
b1 p!
b10 }!

#190000
0!
0X

#195000
1!
1$
0-
0?
0@
b0 E
b10001 I
b0 U!
1X
b1 p!
b10 }!

#196000
0"
0$
b1 )
b100000000000 ,
0.
b100000 G
b0 I
b0 J
b0 K
b0 Q
b0 R
0Y
b1 _
b100000000000 b
0c
b100001000000000000000000010000000000010000000000000001000100000000000100000000000000100001000000000000000000000001000000000000000000000000000000000000000100000000000 h
b100001000000000000000000010000000000010000000000000001000100000000000100000000000000100001000000000000000000000001000000000000000000000000000000000000000100000000000 j
b1 p!
b100 r!
b10 }!

#200000
0!
0X

#205000
1!
b0 /
b0 0
b0 2
b0 3
b0 7
b0 8
b0 V!
b0 W!
1X
b0 Y!
b0 Z!
b0 [!
b0 \!
b0 ]!
b0 ^!
b0 _!
b0 `!
b0 b!
b0 c!
b0 i
0j!
b0 n!
b0 o!
b0 p!
b0 q
b0 r
b10 }!

#210000
0!
0X

#215000
1!
1X

#220000
0!
0X

#225000
1!
1X

#226000
1"
1$
1Y
b10 }!

#230000
0!
0X

#235000
1!
b1 I
1X

#236000
1#
b100 %
b10000000000000011000100000000 '
b100 )
b100000000010 ,
1Z
b100 [
b10000000000000011000100000000 ]
b100 _
b100000000010 b
1d!
b1000001000000000000000000010000000000010000000000000011000100000000000100000000000000100001000000000000000000000100000000000000000000000000000000000000000100000000010 h
b1000001000000000000000000010000000000010000000000000011000100000000000100000000000000100001000000000000000000000100000000000000000000000000000000000000000100000000010 j
b1000 r!
b10 }!

#240000
0!
0X

#245000
1!
0$
14
b10000000000000011000100000000 7
1?
1C
b10 I
b1 U!
b100 W!
1X
b100000000010 Y!
b100 Z!
b10000000000000000000100000000 [!
b10000000000000011000100000000 \!
b10000000000000010000100000000 ]!
b100 ^!
0d!
1e!
1g!
0i!
1k!
1n
b10 n!
b1111 o!
b10000000000000011000100000000 q
b10 }!

#246000
0#
0Z
b10000000000000011000100000000 q
b10 }!

#250000
0!
0X

#255000
1!
b101 !"
04
b10000000000000000000100000000 7
0:
1;
1<
b101 =
0D
b11 I
b1 J
b10 U!
1X
b1 c!
1e
0e!
b101 f
1f!
0g!
1h!
0n
b10000000000000000000100000000 q
0t
1u
1v
b101 w
b10 }!

#260000
0!
0X

#265000
1!
14
0;
0<
b100 I
b11 U!
1X
b101 a!
b10 c!
0e
1e!
0f!
1g!
0h!
1n
0u
0v
b10 }!

#270000
0!
0X

#275000
1!
b1000000000000000011 !"
04
1;
1<
b1000000000000000011 =
0D
b101 I
b10 J
b100 U!
1X
b11 c!
1e
0e!
b1000000000000000011 f
1f!
0g!
1h!
0n
1u
1v
b1000000000000000011 w
b10 }!

#280000
0!
0X

#285000
1!
0;
0<
b110 I
b111 U!
1X
b1000000000000000011 _!
b100 c!
0e
0f!
0h!
b101000000000000001111 p!
0u
0v
b10 }!

#290000
0!
0X

#295000
1!
14
16
b10000000000000010000100000000 7
b101000000000000001111 8
b1111 9
b111 I
b1000 U!
1X
b101000000000000001111 b!
b101 c!
1e!
1g!
1n
1p
b101000000000000001111 p!
b10000000000000010000100000000 q
b101000000000000001111 r
b1111 s
b10 }!

#300000
0!
0X

#305000
1!
04
06
b10000000000000000000100000000 7
b0 9
1;
1<
b0 =
0D
b1000 I
b1 K
b1111 Q
b101000000000000001111 R
b1001 U!
1X
b110 c!
1e
0e!
b0 f
1f!
0g!
1h!
0n
0p
b101000000000000001111 p!
b10000000000000000000100000000 q
b0 s
1u
1v
b0 w
b10 }!

#310000
0!
0X

